%!PS-Adobe-3.0 EPSF-3.0
%%Creator: (MATLAB, The Mathworks, Inc. Version 8.6.0.267246 \(R2015b\). Operating System: Mac OS X)
%%Title: /Users/LANZI/Statistics/Projects/SphHMC/SphAug/code/LDA/MD/EST.eps
%%CreationDate: 2015-12-08T15:40:15
%%Pages: (atend)
%%BoundingBox: 0 0 800 600
%%LanguageLevel: 2
%%EndComments
%%BeginProlog
%%BeginResource: procset (Apache XML Graphics Std ProcSet) 1.2 0
%%Version: 1.2 0
%%Copyright: (Copyright 2001-2003,2010 The Apache Software Foundation. License terms: http://www.apache.org/licenses/LICENSE-2.0)
/bd{bind def}bind def
/ld{load def}bd
/GR/grestore ld
/M/moveto ld
/LJ/setlinejoin ld
/C/curveto ld
/f/fill ld
/LW/setlinewidth ld
/GC/setgray ld
/t/show ld
/N/newpath ld
/CT/concat ld
/cp/closepath ld
/S/stroke ld
/L/lineto ld
/CC/setcmykcolor ld
/A/ashow ld
/GS/gsave ld
/RC/setrgbcolor ld
/RM/rmoveto ld
/ML/setmiterlimit ld
/re {4 2 roll M
1 index 0 rlineto
0 exch rlineto
neg 0 rlineto
cp } bd
/_ctm matrix def
/_tm matrix def
/BT { _ctm currentmatrix pop matrix _tm copy pop 0 0 moveto } bd
/ET { _ctm setmatrix } bd
/iTm { _ctm setmatrix _tm concat } bd
/Tm { _tm astore pop iTm 0 0 moveto } bd
/ux 0.0 def
/uy 0.0 def
/F {
  /Tp exch def
  /Tf exch def
  Tf findfont Tp scalefont setfont
  /cf Tf def  /cs Tp def
} bd
/ULS {currentpoint /uy exch def /ux exch def} bd
/ULE {
  /Tcx currentpoint pop def
  gsave
  newpath
  cf findfont cs scalefont dup
  /FontMatrix get 0 get /Ts exch def /FontInfo get dup
  /UnderlinePosition get Ts mul /To exch def
  /UnderlineThickness get Ts mul /Tt exch def
  ux uy To add moveto  Tcx uy To add lineto
  Tt setlinewidth stroke
  grestore
} bd
/OLE {
  /Tcx currentpoint pop def
  gsave
  newpath
  cf findfont cs scalefont dup
  /FontMatrix get 0 get /Ts exch def /FontInfo get dup
  /UnderlinePosition get Ts mul /To exch def
  /UnderlineThickness get Ts mul /Tt exch def
  ux uy To add cs add moveto Tcx uy To add cs add lineto
  Tt setlinewidth stroke
  grestore
} bd
/SOE {
  /Tcx currentpoint pop def
  gsave
  newpath
  cf findfont cs scalefont dup
  /FontMatrix get 0 get /Ts exch def /FontInfo get dup
  /UnderlinePosition get Ts mul /To exch def
  /UnderlineThickness get Ts mul /Tt exch def
  ux uy To add cs 10 mul 26 idiv add moveto Tcx uy To add cs 10 mul 26 idiv add lineto
  Tt setlinewidth stroke
  grestore
} bd
/QT {
/Y22 exch store
/X22 exch store
/Y21 exch store
/X21 exch store
currentpoint
/Y21 load 2 mul add 3 div exch
/X21 load 2 mul add 3 div exch
/X21 load 2 mul /X22 load add 3 div
/Y21 load 2 mul /Y22 load add 3 div
/X22 load /Y22 load curveto
} bd
/SSPD {
dup length /d exch dict def
{
/v exch def
/k exch def
currentpagedevice k known {
/cpdv currentpagedevice k get def
v cpdv ne {
/upd false def
/nullv v type /nulltype eq def
/nullcpdv cpdv type /nulltype eq def
nullv nullcpdv or
{
/upd true def
} {
/sametype v type cpdv type eq def
sametype {
v type /arraytype eq {
/vlen v length def
/cpdvlen cpdv length def
vlen cpdvlen eq {
0 1 vlen 1 sub {
/i exch def
/obj v i get def
/cpdobj cpdv i get def
obj cpdobj ne {
/upd true def
exit
} if
} for
} {
/upd true def
} ifelse
} {
v type /dicttype eq {
v {
/dv exch def
/dk exch def
/cpddv cpdv dk get def
dv cpddv ne {
/upd true def
exit
} if
} forall
} {
/upd true def
} ifelse
} ifelse
} if
} ifelse
upd true eq {
d k v put
} if
} if
} if
} forall
d length 0 gt {
d setpagedevice
} if
} bd
%%EndResource
%%BeginResource: procset (Apache XML Graphics EPS ProcSet) 1.0 0
%%Version: 1.0 0
%%Copyright: (Copyright 2002-2003 The Apache Software Foundation. License terms: http://www.apache.org/licenses/LICENSE-2.0)
/BeginEPSF { %def
/b4_Inc_state save def         % Save state for cleanup
/dict_count countdictstack def % Count objects on dict stack
/op_count count 1 sub def      % Count objects on operand stack
userdict begin                 % Push userdict on dict stack
/showpage { } def              % Redefine showpage, { } = null proc
0 setgray 0 setlinecap         % Prepare graphics state
1 setlinewidth 0 setlinejoin
10 setmiterlimit [ ] 0 setdash newpath
/languagelevel where           % If level not equal to 1 then
{pop languagelevel             % set strokeadjust and
1 ne                           % overprint to their defaults.
{false setstrokeadjust false setoverprint
} if
} if
} bd
/EndEPSF { %def
count op_count sub {pop} repeat            % Clean up stacks
countdictstack dict_count sub {end} repeat
b4_Inc_state restore
} bd
%%EndResource
%FOPBeginFontDict
%%IncludeResource: font Courier-Bold
%%IncludeResource: font Helvetica
%%IncludeResource: font Courier-BoldOblique
%%IncludeResource: font Courier-Oblique
%%IncludeResource: font Times-Roman
%%IncludeResource: font Helvetica-BoldOblique
%%IncludeResource: font Helvetica-Bold
%%IncludeResource: font Helvetica-Oblique
%%IncludeResource: font Times-BoldItalic
%%IncludeResource: font Courier
%%IncludeResource: font Times-Italic
%%IncludeResource: font Times-Bold
%%IncludeResource: font Symbol
%%IncludeResource: font ZapfDingbats
%FOPEndFontDict
%%BeginResource: encoding WinAnsiEncoding
/WinAnsiEncoding [
/.notdef /.notdef /.notdef /.notdef /.notdef
/.notdef /.notdef /.notdef /.notdef /.notdef
/.notdef /.notdef /.notdef /.notdef /.notdef
/.notdef /.notdef /.notdef /.notdef /.notdef
/.notdef /.notdef /.notdef /.notdef /.notdef
/.notdef /.notdef /.notdef /.notdef /.notdef
/.notdef /.notdef /space /exclam /quotedbl
/numbersign /dollar /percent /ampersand /quotesingle
/parenleft /parenright /asterisk /plus /comma
/hyphen /period /slash /zero /one
/two /three /four /five /six
/seven /eight /nine /colon /semicolon
/less /equal /greater /question /at
/A /B /C /D /E
/F /G /H /I /J
/K /L /M /N /O
/P /Q /R /S /T
/U /V /W /X /Y
/Z /bracketleft /backslash /bracketright /asciicircum
/underscore /quoteleft /a /b /c
/d /e /f /g /h
/i /j /k /l /m
/n /o /p /q /r
/s /t /u /v /w
/x /y /z /braceleft /bar
/braceright /asciitilde /bullet /Euro /bullet
/quotesinglbase /florin /quotedblbase /ellipsis /dagger
/daggerdbl /circumflex /perthousand /Scaron /guilsinglleft
/OE /bullet /Zcaron /bullet /bullet
/quoteleft /quoteright /quotedblleft /quotedblright /bullet
/endash /emdash /asciitilde /trademark /scaron
/guilsinglright /oe /bullet /zcaron /Ydieresis
/space /exclamdown /cent /sterling /currency
/yen /brokenbar /section /dieresis /copyright
/ordfeminine /guillemotleft /logicalnot /sfthyphen /registered
/macron /degree /plusminus /twosuperior /threesuperior
/acute /mu /paragraph /middot /cedilla
/onesuperior /ordmasculine /guillemotright /onequarter /onehalf
/threequarters /questiondown /Agrave /Aacute /Acircumflex
/Atilde /Adieresis /Aring /AE /Ccedilla
/Egrave /Eacute /Ecircumflex /Edieresis /Igrave
/Iacute /Icircumflex /Idieresis /Eth /Ntilde
/Ograve /Oacute /Ocircumflex /Otilde /Odieresis
/multiply /Oslash /Ugrave /Uacute /Ucircumflex
/Udieresis /Yacute /Thorn /germandbls /agrave
/aacute /acircumflex /atilde /adieresis /aring
/ae /ccedilla /egrave /eacute /ecircumflex
/edieresis /igrave /iacute /icircumflex /idieresis
/eth /ntilde /ograve /oacute /ocircumflex
/otilde /odieresis /divide /oslash /ugrave
/uacute /ucircumflex /udieresis /yacute /thorn
/ydieresis
] def
%%EndResource
%FOPBeginFontReencode
/Courier-Bold findfont
dup length dict begin
  {1 index /FID ne {def} {pop pop} ifelse} forall
  /Encoding WinAnsiEncoding def
  currentdict
end
/Courier-Bold exch definefont pop
/Helvetica findfont
dup length dict begin
  {1 index /FID ne {def} {pop pop} ifelse} forall
  /Encoding WinAnsiEncoding def
  currentdict
end
/Helvetica exch definefont pop
/Courier-BoldOblique findfont
dup length dict begin
  {1 index /FID ne {def} {pop pop} ifelse} forall
  /Encoding WinAnsiEncoding def
  currentdict
end
/Courier-BoldOblique exch definefont pop
/Courier-Oblique findfont
dup length dict begin
  {1 index /FID ne {def} {pop pop} ifelse} forall
  /Encoding WinAnsiEncoding def
  currentdict
end
/Courier-Oblique exch definefont pop
/Times-Roman findfont
dup length dict begin
  {1 index /FID ne {def} {pop pop} ifelse} forall
  /Encoding WinAnsiEncoding def
  currentdict
end
/Times-Roman exch definefont pop
/Helvetica-BoldOblique findfont
dup length dict begin
  {1 index /FID ne {def} {pop pop} ifelse} forall
  /Encoding WinAnsiEncoding def
  currentdict
end
/Helvetica-BoldOblique exch definefont pop
/Helvetica-Bold findfont
dup length dict begin
  {1 index /FID ne {def} {pop pop} ifelse} forall
  /Encoding WinAnsiEncoding def
  currentdict
end
/Helvetica-Bold exch definefont pop
/Helvetica-Oblique findfont
dup length dict begin
  {1 index /FID ne {def} {pop pop} ifelse} forall
  /Encoding WinAnsiEncoding def
  currentdict
end
/Helvetica-Oblique exch definefont pop
/Times-BoldItalic findfont
dup length dict begin
  {1 index /FID ne {def} {pop pop} ifelse} forall
  /Encoding WinAnsiEncoding def
  currentdict
end
/Times-BoldItalic exch definefont pop
/Courier findfont
dup length dict begin
  {1 index /FID ne {def} {pop pop} ifelse} forall
  /Encoding WinAnsiEncoding def
  currentdict
end
/Courier exch definefont pop
/Times-Italic findfont
dup length dict begin
  {1 index /FID ne {def} {pop pop} ifelse} forall
  /Encoding WinAnsiEncoding def
  currentdict
end
/Times-Italic exch definefont pop
/Times-Bold findfont
dup length dict begin
  {1 index /FID ne {def} {pop pop} ifelse} forall
  /Encoding WinAnsiEncoding def
  currentdict
end
/Times-Bold exch definefont pop
%FOPEndFontReencode
%%EndProlog
%%Page: 1 1
%%PageBoundingBox: 0 0 800 600
%%BeginPageSetup
[1 0 0 -1 0 600] CT
%%EndPageSetup
GS
1 GC
N
0 0 800 600 re
f
GR
GS
1 GC
N
0 0 800 600 re
f
GR
GS
1 GC
N
64 552 M
760 552 L
760 42 L
64 42 L
cp
f
GR
GS
0.149 GC
2 setlinecap
1 LJ
0.5 LW
N
64 552 M
760 552 L
S
GR
GS
0.149 GC
2 setlinecap
1 LJ
0.5 LW
N
64 42 M
760 42 L
S
GR
GS
0.149 GC
2 setlinecap
1 LJ
0.5 LW
N
64 552 M
64 545.04 L
S
GR
GS
0.149 GC
2 setlinecap
1 LJ
0.5 LW
N
133.6 552 M
133.6 545.04 L
S
GR
GS
0.149 GC
2 setlinecap
1 LJ
0.5 LW
N
203.2 552 M
203.2 545.04 L
S
GR
GS
0.149 GC
2 setlinecap
1 LJ
0.5 LW
N
272.8 552 M
272.8 545.04 L
S
GR
GS
0.149 GC
2 setlinecap
1 LJ
0.5 LW
N
342.4 552 M
342.4 545.04 L
S
GR
GS
0.149 GC
2 setlinecap
1 LJ
0.5 LW
N
412 552 M
412 545.04 L
S
GR
GS
0.149 GC
2 setlinecap
1 LJ
0.5 LW
N
481.6 552 M
481.6 545.04 L
S
GR
GS
0.149 GC
2 setlinecap
1 LJ
0.5 LW
N
551.2 552 M
551.2 545.04 L
S
GR
GS
0.149 GC
2 setlinecap
1 LJ
0.5 LW
N
620.8 552 M
620.8 545.04 L
S
GR
GS
0.149 GC
2 setlinecap
1 LJ
0.5 LW
N
690.4 552 M
690.4 545.04 L
S
GR
GS
0.149 GC
2 setlinecap
1 LJ
0.5 LW
N
760 552 M
760 545.04 L
S
GR
GS
0.149 GC
2 setlinecap
1 LJ
0.5 LW
N
64 42 M
64 48.96 L
S
GR
GS
0.149 GC
2 setlinecap
1 LJ
0.5 LW
N
133.6 42 M
133.6 48.96 L
S
GR
GS
0.149 GC
2 setlinecap
1 LJ
0.5 LW
N
203.2 42 M
203.2 48.96 L
S
GR
GS
0.149 GC
2 setlinecap
1 LJ
0.5 LW
N
272.8 42 M
272.8 48.96 L
S
GR
GS
0.149 GC
2 setlinecap
1 LJ
0.5 LW
N
342.4 42 M
342.4 48.96 L
S
GR
GS
0.149 GC
2 setlinecap
1 LJ
0.5 LW
N
412 42 M
412 48.96 L
S
GR
GS
0.149 GC
2 setlinecap
1 LJ
0.5 LW
N
481.6 42 M
481.6 48.96 L
S
GR
GS
0.149 GC
2 setlinecap
1 LJ
0.5 LW
N
551.2 42 M
551.2 48.96 L
S
GR
GS
0.149 GC
2 setlinecap
1 LJ
0.5 LW
N
620.8 42 M
620.8 48.96 L
S
GR
GS
0.149 GC
2 setlinecap
1 LJ
0.5 LW
N
690.4 42 M
690.4 48.96 L
S
GR
GS
0.149 GC
2 setlinecap
1 LJ
0.5 LW
N
760 42 M
760 48.96 L
S
GR
GS
[1 0 0 1 64 557] CT
0.149 GC
/Helvetica 15 F
GS
[1 0 0 1 0 0] CT
-6.5 12 moveto 
1 -1 scale
(0 ) t 
GR
GR
GS
[1 0 0 1 133.60001 557] CT
0.149 GC
/Helvetica 15 F
GS
[1 0 0 1 0 0] CT
-6.5 12 moveto 
1 -1 scale
(1 ) t 
GR
GR
GS
[1 0 0 1 203.2 557] CT
0.149 GC
/Helvetica 15 F
GS
[1 0 0 1 0 0] CT
-6.5 12 moveto 
1 -1 scale
(2 ) t 
GR
GR
GS
[1 0 0 1 272.79999 557] CT
0.149 GC
/Helvetica 15 F
GS
[1 0 0 1 0 0] CT
-6.5 12 moveto 
1 -1 scale
(3 ) t 
GR
GR
GS
[1 0 0 1 342.39999 557] CT
0.149 GC
/Helvetica 15 F
GS
[1 0 0 1 0 0] CT
-6.5 12 moveto 
1 -1 scale
(4 ) t 
GR
GR
GS
[1 0 0 1 412 557] CT
0.149 GC
/Helvetica 15 F
GS
[1 0 0 1 0 0] CT
-6.5 12 moveto 
1 -1 scale
(5 ) t 
GR
GR
GS
[1 0 0 1 481.60001 557] CT
0.149 GC
/Helvetica 15 F
GS
[1 0 0 1 0 0] CT
-6.5 12 moveto 
1 -1 scale
(6 ) t 
GR
GR
GS
[1 0 0 1 551.20001 557] CT
0.149 GC
/Helvetica 15 F
GS
[1 0 0 1 0 0] CT
-6.5 12 moveto 
1 -1 scale
(7 ) t 
GR
GR
GS
[1 0 0 1 620.79999 557] CT
0.149 GC
/Helvetica 15 F
GS
[1 0 0 1 0 0] CT
-6.5 12 moveto 
1 -1 scale
(8 ) t 
GR
GR
GS
[1 0 0 1 690.40002 557] CT
0.149 GC
/Helvetica 15 F
GS
[1 0 0 1 0 0] CT
-6.5 12 moveto 
1 -1 scale
(9 ) t 
GR
GR
GS
[1 0 0 1 760 557] CT
0.149 GC
/Helvetica 15 F
GS
[1 0 0 1 0 0] CT
-8.5 12 moveto 
1 -1 scale
(10) t 
GR
GR
GS
[1 0 0 1 412.00034 573.5] CT
0.149 GC
/Helvetica 17 F
GS
[1 0 0 1 0 0] CT
-34.5 14 moveto 
1 -1 scale
(Category) t 
GR
GR
GS
0.149 GC
2 setlinecap
1 LJ
0.5 LW
N
64 552 M
64 42 L
S
GR
GS
0.149 GC
2 setlinecap
1 LJ
0.5 LW
N
760 552 M
760 42 L
S
GR
GS
0.149 GC
2 setlinecap
1 LJ
0.5 LW
N
64 552 M
70.96 552 L
S
GR
GS
0.149 GC
2 setlinecap
1 LJ
0.5 LW
N
64 488.25 M
70.96 488.25 L
S
GR
GS
0.149 GC
2 setlinecap
1 LJ
0.5 LW
N
64 424.5 M
70.96 424.5 L
S
GR
GS
0.149 GC
2 setlinecap
1 LJ
0.5 LW
N
64 360.75 M
70.96 360.75 L
S
GR
GS
0.149 GC
2 setlinecap
1 LJ
0.5 LW
N
64 297 M
70.96 297 L
S
GR
GS
0.149 GC
2 setlinecap
1 LJ
0.5 LW
N
64 233.25 M
70.96 233.25 L
S
GR
GS
0.149 GC
2 setlinecap
1 LJ
0.5 LW
N
64 169.5 M
70.96 169.5 L
S
GR
GS
0.149 GC
2 setlinecap
1 LJ
0.5 LW
N
64 105.75 M
70.96 105.75 L
S
GR
GS
0.149 GC
2 setlinecap
1 LJ
0.5 LW
N
760 552 M
753.04 552 L
S
GR
GS
0.149 GC
2 setlinecap
1 LJ
0.5 LW
N
760 488.25 M
753.04 488.25 L
S
GR
GS
0.149 GC
2 setlinecap
1 LJ
0.5 LW
N
760 424.5 M
753.04 424.5 L
S
GR
GS
0.149 GC
2 setlinecap
1 LJ
0.5 LW
N
760 360.75 M
753.04 360.75 L
S
GR
GS
0.149 GC
2 setlinecap
1 LJ
0.5 LW
N
760 297 M
753.04 297 L
S
GR
GS
0.149 GC
2 setlinecap
1 LJ
0.5 LW
N
760 233.25 M
753.04 233.25 L
S
GR
GS
0.149 GC
2 setlinecap
1 LJ
0.5 LW
N
760 169.5 M
753.04 169.5 L
S
GR
GS
0.149 GC
2 setlinecap
1 LJ
0.5 LW
N
760 105.75 M
753.04 105.75 L
S
GR
GS
[1 0 0 1 59 552] CT
0.149 GC
/Helvetica 15 F
GS
[1 0 0 1 0 0] CT
-26 4 moveto 
1 -1 scale
(-0.6) t 
GR
GR
GS
[1 0 0 1 59 488.25] CT
0.149 GC
/Helvetica 15 F
GS
[1 0 0 1 0 0] CT
-26 4 moveto 
1 -1 scale
(-0.5) t 
GR
GR
GS
[1 0 0 1 59 424.5] CT
0.149 GC
/Helvetica 15 F
GS
[1 0 0 1 0 0] CT
-26 4 moveto 
1 -1 scale
(-0.4) t 
GR
GR
GS
[1 0 0 1 59 360.75] CT
0.149 GC
/Helvetica 15 F
GS
[1 0 0 1 0 0] CT
-26 4 moveto 
1 -1 scale
(-0.3) t 
GR
GR
GS
[1 0 0 1 59 297] CT
0.149 GC
/Helvetica 15 F
GS
[1 0 0 1 0 0] CT
-26 4 moveto 
1 -1 scale
(-0.2) t 
GR
GR
GS
[1 0 0 1 59 233.25] CT
0.149 GC
/Helvetica 15 F
GS
[1 0 0 1 0 0] CT
-26 4 moveto 
1 -1 scale
(-0.1) t 
GR
GR
GS
[1 0 0 1 59 169.5] CT
0.149 GC
/Helvetica 15 F
GS
[1 0 0 1 0 0] CT
-21 4 moveto 
1 -1 scale
(0   ) t 
GR
GR
GS
[1 0 0 1 59 105.75] CT
0.149 GC
/Helvetica 15 F
GS
[1 0 0 1 0 0] CT
-26 4 moveto 
1 -1 scale
(0.1 ) t 
GR
GR
GS
[0 -1 1 0 30 296.99976] CT
0.149 GC
/Helvetica 17 F
GS
[1 0 0 1 0 0] CT
-182.5 -4 moveto 
1 -1 scale
(Probability estimates adjusted by the true values) t 
GR
GR
GS
0 0.447 0.741 RC
1 LJ
1.5 LW
N
133.6 516.163 M
133.6 380.75 L
S
GR
GS
0 0.447 0.741 RC
1 LJ
1.5 LW
N
203.2 150.258 M
203.2 89.172 L
S
GR
GS
0 0.447 0.741 RC
1 LJ
1.5 LW
N
272.8 125.355 M
272.8 90.683 L
S
GR
GS
0 0.447 0.741 RC
1 LJ
1.5 LW
N
342.4 164.499 M
342.4 135.487 L
S
GR
GS
0 0.447 0.741 RC
1 LJ
1.5 LW
N
412 161.609 M
412 115.052 L
S
GR
GS
0 0.447 0.741 RC
1 LJ
1.5 LW
N
481.6 167.05 M
481.6 109.933 L
S
GR
GS
0 0.447 0.741 RC
1 LJ
1.5 LW
N
551.2 170.593 M
551.2 129.26 L
S
GR
GS
0 0.447 0.741 RC
1 LJ
1.5 LW
N
620.8 120.902 M
620.8 100.685 L
S
GR
GS
0 0.447 0.741 RC
1 LJ
1.5 LW
N
690.4 172.274 M
690.4 157.016 L
S
GR
GS
0 0.447 0.741 RC
1 LJ
1.5 LW
N
128.032 516.163 M
139.168 516.163 L
S
GR
GS
0 0.447 0.741 RC
1 LJ
1.5 LW
N
197.632 150.258 M
208.768 150.258 L
S
GR
GS
0 0.447 0.741 RC
1 LJ
1.5 LW
N
267.232 125.355 M
278.368 125.355 L
S
GR
GS
0 0.447 0.741 RC
1 LJ
1.5 LW
N
336.832 164.499 M
347.968 164.499 L
S
GR
GS
0 0.447 0.741 RC
1 LJ
1.5 LW
N
406.432 161.609 M
417.568 161.609 L
S
GR
GS
0 0.447 0.741 RC
1 LJ
1.5 LW
N
476.032 167.05 M
487.168 167.05 L
S
GR
GS
0 0.447 0.741 RC
1 LJ
1.5 LW
N
545.632 170.593 M
556.768 170.593 L
S
GR
GS
0 0.447 0.741 RC
1 LJ
1.5 LW
N
615.232 120.902 M
626.368 120.902 L
S
GR
GS
0 0.447 0.741 RC
1 LJ
1.5 LW
N
684.832 172.274 M
695.968 172.274 L
S
GR
GS
0 0.447 0.741 RC
1 LJ
1.5 LW
N
128.032 380.75 M
139.168 380.75 L
S
GR
GS
0 0.447 0.741 RC
1 LJ
1.5 LW
N
197.632 89.172 M
208.768 89.172 L
S
GR
GS
0 0.447 0.741 RC
1 LJ
1.5 LW
N
267.232 90.683 M
278.368 90.683 L
S
GR
GS
0 0.447 0.741 RC
1 LJ
1.5 LW
N
336.832 135.487 M
347.968 135.487 L
S
GR
GS
0 0.447 0.741 RC
1 LJ
1.5 LW
N
406.432 115.052 M
417.568 115.052 L
S
GR
GS
0 0.447 0.741 RC
1 LJ
1.5 LW
N
476.032 109.933 M
487.168 109.933 L
S
GR
GS
0 0.447 0.741 RC
1 LJ
1.5 LW
N
545.632 129.26 M
556.768 129.26 L
S
GR
GS
0 0.447 0.741 RC
1 LJ
1.5 LW
N
615.232 100.685 M
626.368 100.685 L
S
GR
GS
0 0.447 0.741 RC
1 LJ
1.5 LW
N
684.832 157.016 M
695.968 157.016 L
S
GR
GS
0 0.447 0.741 RC
1 LJ
1.5 LW
N
129 453 M
138 444 L
S
GR
GS
0 0.447 0.741 RC
1 LJ
1.5 LW
N
129 444 M
138 453 L
S
GR
GS
0 0.447 0.741 RC
1 LJ
1.5 LW
N
199 124 M
208 115 L
S
GR
GS
0 0.447 0.741 RC
1 LJ
1.5 LW
N
199 115 M
208 124 L
S
GR
GS
0 0.447 0.741 RC
1 LJ
1.5 LW
N
268 113 M
277 104 L
S
GR
GS
0 0.447 0.741 RC
1 LJ
1.5 LW
N
268 104 M
277 113 L
S
GR
GS
0 0.447 0.741 RC
1 LJ
1.5 LW
N
338 154 M
347 145 L
S
GR
GS
0 0.447 0.741 RC
1 LJ
1.5 LW
N
338 145 M
347 154 L
S
GR
GS
0 0.447 0.741 RC
1 LJ
1.5 LW
N
408 143 M
417 134 L
S
GR
GS
0 0.447 0.741 RC
1 LJ
1.5 LW
N
408 134 M
417 143 L
S
GR
GS
0 0.447 0.741 RC
1 LJ
1.5 LW
N
477 143 M
486 134 L
S
GR
GS
0 0.447 0.741 RC
1 LJ
1.5 LW
N
477 134 M
486 143 L
S
GR
GS
0 0.447 0.741 RC
1 LJ
1.5 LW
N
547 154 M
556 145 L
S
GR
GS
0 0.447 0.741 RC
1 LJ
1.5 LW
N
547 145 M
556 154 L
S
GR
GS
0 0.447 0.741 RC
1 LJ
1.5 LW
N
616 115 M
625 106 L
S
GR
GS
0 0.447 0.741 RC
1 LJ
1.5 LW
N
616 106 M
625 115 L
S
GR
GS
0 0.447 0.741 RC
1 LJ
1.5 LW
N
686 169 M
695 160 L
S
GR
GS
0 0.447 0.741 RC
1 LJ
1.5 LW
N
686 160 M
695 169 L
S
GR
GS
0.851 0.325 0.098 RC
1 LJ
1.5 LW
N
141.952 454.9 M
141.952 308.215 L
S
GR
GS
0.851 0.325 0.098 RC
1 LJ
1.5 LW
N
211.552 159.59 M
211.552 122.795 L
S
GR
GS
0.851 0.325 0.098 RC
1 LJ
1.5 LW
N
281.152 126.323 M
281.152 104.771 L
S
GR
GS
0.851 0.325 0.098 RC
1 LJ
1.5 LW
N
350.752 174.69 M
350.752 150.944 L
S
GR
GS
0.851 0.325 0.098 RC
1 LJ
1.5 LW
N
420.352 151.731 M
420.352 113.073 L
S
GR
GS
0.851 0.325 0.098 RC
1 LJ
1.5 LW
N
489.952 145.671 M
489.952 88.286 L
S
GR
GS
0.851 0.325 0.098 RC
1 LJ
1.5 LW
N
559.552 171.77 M
559.552 158.065 L
S
GR
GS
0.851 0.325 0.098 RC
1 LJ
1.5 LW
N
629.152 171.218 M
629.152 138.361 L
S
GR
GS
0.851 0.325 0.098 RC
1 LJ
1.5 LW
N
698.752 169.994 M
698.752 148.448 L
S
GR
GS
0.851 0.325 0.098 RC
1 LJ
1.5 LW
N
136.384 454.9 M
147.52 454.9 L
S
GR
GS
0.851 0.325 0.098 RC
1 LJ
1.5 LW
N
205.984 159.59 M
217.12 159.59 L
S
GR
GS
0.851 0.325 0.098 RC
1 LJ
1.5 LW
N
275.584 126.323 M
286.72 126.323 L
S
GR
GS
0.851 0.325 0.098 RC
1 LJ
1.5 LW
N
345.184 174.69 M
356.32 174.69 L
S
GR
GS
0.851 0.325 0.098 RC
1 LJ
1.5 LW
N
414.784 151.731 M
425.92 151.731 L
S
GR
GS
0.851 0.325 0.098 RC
1 LJ
1.5 LW
N
484.384 145.671 M
495.52 145.671 L
S
GR
GS
0.851 0.325 0.098 RC
1 LJ
1.5 LW
N
553.984 171.77 M
565.12 171.77 L
S
GR
GS
0.851 0.325 0.098 RC
1 LJ
1.5 LW
N
623.584 171.218 M
634.72 171.218 L
S
GR
GS
0.851 0.325 0.098 RC
1 LJ
1.5 LW
N
693.184 169.994 M
704.32 169.994 L
S
GR
GS
0.851 0.325 0.098 RC
1 LJ
1.5 LW
N
136.384 308.215 M
147.52 308.215 L
S
GR
GS
0.851 0.325 0.098 RC
1 LJ
1.5 LW
N
205.984 122.795 M
217.12 122.795 L
S
GR
GS
0.851 0.325 0.098 RC
1 LJ
1.5 LW
N
275.584 104.771 M
286.72 104.771 L
S
GR
GS
0.851 0.325 0.098 RC
1 LJ
1.5 LW
N
345.184 150.944 M
356.32 150.944 L
S
GR
GS
0.851 0.325 0.098 RC
1 LJ
1.5 LW
N
414.784 113.073 M
425.92 113.073 L
S
GR
GS
0.851 0.325 0.098 RC
1 LJ
1.5 LW
N
484.384 88.286 M
495.52 88.286 L
S
GR
GS
0.851 0.325 0.098 RC
1 LJ
1.5 LW
N
553.984 158.065 M
565.12 158.065 L
S
GR
GS
0.851 0.325 0.098 RC
1 LJ
1.5 LW
N
623.584 138.361 M
634.72 138.361 L
S
GR
GS
0.851 0.325 0.098 RC
1 LJ
1.5 LW
N
693.184 148.448 M
704.32 148.448 L
S
GR
GS
0.851 0.325 0.098 RC
1 LJ
1.5 LW
N
137 386 M
146 377 L
S
GR
GS
0.851 0.325 0.098 RC
1 LJ
1.5 LW
N
137 377 M
146 386 L
S
GR
GS
0.851 0.325 0.098 RC
1 LJ
1.5 LW
N
207 146 M
216 137 L
S
GR
GS
0.851 0.325 0.098 RC
1 LJ
1.5 LW
N
207 137 M
216 146 L
S
GR
GS
0.851 0.325 0.098 RC
1 LJ
1.5 LW
N
277 120 M
286 111 L
S
GR
GS
0.851 0.325 0.098 RC
1 LJ
1.5 LW
N
277 111 M
286 120 L
S
GR
GS
0.851 0.325 0.098 RC
1 LJ
1.5 LW
N
346 167 M
355 158 L
S
GR
GS
0.851 0.325 0.098 RC
1 LJ
1.5 LW
N
346 158 M
355 167 L
S
GR
GS
0.851 0.325 0.098 RC
1 LJ
1.5 LW
N
416 137 M
425 128 L
S
GR
GS
0.851 0.325 0.098 RC
1 LJ
1.5 LW
N
416 128 M
425 137 L
S
GR
GS
0.851 0.325 0.098 RC
1 LJ
1.5 LW
N
485 121 M
494 112 L
S
GR
GS
0.851 0.325 0.098 RC
1 LJ
1.5 LW
N
485 112 M
494 121 L
S
GR
GS
0.851 0.325 0.098 RC
1 LJ
1.5 LW
N
555 169 M
564 160 L
S
GR
GS
0.851 0.325 0.098 RC
1 LJ
1.5 LW
N
555 160 M
564 169 L
S
GR
GS
0.851 0.325 0.098 RC
1 LJ
1.5 LW
N
625 159 M
634 150 L
S
GR
GS
0.851 0.325 0.098 RC
1 LJ
1.5 LW
N
625 150 M
634 159 L
S
GR
GS
0.851 0.325 0.098 RC
1 LJ
1.5 LW
N
694 164 M
703 155 L
S
GR
GS
0.851 0.325 0.098 RC
1 LJ
1.5 LW
N
694 155 M
703 164 L
S
GR
GS
0.929 0.694 0.125 RC
1 LJ
1.5 LW
N
150.304 214.688 M
150.304 168.563 L
S
GR
GS
0.929 0.694 0.125 RC
1 LJ
1.5 LW
N
219.904 182.115 M
219.904 153.684 L
S
GR
GS
0.929 0.694 0.125 RC
1 LJ
1.5 LW
N
289.504 182.203 M
289.504 154.583 L
S
GR
GS
0.929 0.694 0.125 RC
1 LJ
1.5 LW
N
359.104 172.694 M
359.104 160.069 L
S
GR
GS
0.929 0.694 0.125 RC
1 LJ
1.5 LW
N
428.704 172.544 M
428.704 160.721 L
S
GR
GS
0.929 0.694 0.125 RC
1 LJ
1.5 LW
N
498.304 172.382 M
498.304 161.252 L
S
GR
GS
0.929 0.694 0.125 RC
1 LJ
1.5 LW
N
567.904 172.534 M
567.904 161.282 L
S
GR
GS
0.929 0.694 0.125 RC
1 LJ
1.5 LW
N
637.504 172.482 M
637.504 161.58 L
S
GR
GS
0.929 0.694 0.125 RC
1 LJ
1.5 LW
N
707.104 172.56 M
707.104 161.707 L
S
GR
GS
0.929 0.694 0.125 RC
1 LJ
1.5 LW
N
144.736 214.688 M
155.872 214.688 L
S
GR
GS
0.929 0.694 0.125 RC
1 LJ
1.5 LW
N
214.336 182.115 M
225.472 182.115 L
S
GR
GS
0.929 0.694 0.125 RC
1 LJ
1.5 LW
N
283.936 182.203 M
295.072 182.203 L
S
GR
GS
0.929 0.694 0.125 RC
1 LJ
1.5 LW
N
353.536 172.694 M
364.672 172.694 L
S
GR
GS
0.929 0.694 0.125 RC
1 LJ
1.5 LW
N
423.136 172.544 M
434.272 172.544 L
S
GR
GS
0.929 0.694 0.125 RC
1 LJ
1.5 LW
N
492.736 172.382 M
503.872 172.382 L
S
GR
GS
0.929 0.694 0.125 RC
1 LJ
1.5 LW
N
562.336 172.534 M
573.472 172.534 L
S
GR
GS
0.929 0.694 0.125 RC
1 LJ
1.5 LW
N
631.936 172.482 M
643.072 172.482 L
S
GR
GS
0.929 0.694 0.125 RC
1 LJ
1.5 LW
N
701.536 172.56 M
712.672 172.56 L
S
GR
GS
0.929 0.694 0.125 RC
1 LJ
1.5 LW
N
144.736 168.563 M
155.872 168.563 L
S
GR
GS
0.929 0.694 0.125 RC
1 LJ
1.5 LW
N
214.336 153.684 M
225.472 153.684 L
S
GR
GS
0.929 0.694 0.125 RC
1 LJ
1.5 LW
N
283.936 154.583 M
295.072 154.583 L
S
GR
GS
0.929 0.694 0.125 RC
1 LJ
1.5 LW
N
353.536 160.069 M
364.672 160.069 L
S
GR
GS
0.929 0.694 0.125 RC
1 LJ
1.5 LW
N
423.136 160.721 M
434.272 160.721 L
S
GR
GS
0.929 0.694 0.125 RC
1 LJ
1.5 LW
N
492.736 161.252 M
503.872 161.252 L
S
GR
GS
0.929 0.694 0.125 RC
1 LJ
1.5 LW
N
562.336 161.282 M
573.472 161.282 L
S
GR
GS
0.929 0.694 0.125 RC
1 LJ
1.5 LW
N
631.936 161.58 M
643.072 161.58 L
S
GR
GS
0.929 0.694 0.125 RC
1 LJ
1.5 LW
N
701.536 161.707 M
712.672 161.707 L
S
GR
GS
0.929 0.694 0.125 RC
1 LJ
1.5 LW
N
146 196 M
155 187 L
S
GR
GS
0.929 0.694 0.125 RC
1 LJ
1.5 LW
N
146 187 M
155 196 L
S
GR
GS
0.929 0.694 0.125 RC
1 LJ
1.5 LW
N
215 172 M
224 163 L
S
GR
GS
0.929 0.694 0.125 RC
1 LJ
1.5 LW
N
215 163 M
224 172 L
S
GR
GS
0.929 0.694 0.125 RC
1 LJ
1.5 LW
N
285 173 M
294 164 L
S
GR
GS
0.929 0.694 0.125 RC
1 LJ
1.5 LW
N
285 164 M
294 173 L
S
GR
GS
0.929 0.694 0.125 RC
1 LJ
1.5 LW
N
355 171 M
364 162 L
S
GR
GS
0.929 0.694 0.125 RC
1 LJ
1.5 LW
N
355 162 M
364 171 L
S
GR
GS
0.929 0.694 0.125 RC
1 LJ
1.5 LW
N
424 171 M
433 162 L
S
GR
GS
0.929 0.694 0.125 RC
1 LJ
1.5 LW
N
424 162 M
433 171 L
S
GR
GS
0.929 0.694 0.125 RC
1 LJ
1.5 LW
N
494 171 M
503 162 L
S
GR
GS
0.929 0.694 0.125 RC
1 LJ
1.5 LW
N
494 162 M
503 171 L
S
GR
GS
0.929 0.694 0.125 RC
1 LJ
1.5 LW
N
563 171 M
572 162 L
S
GR
GS
0.929 0.694 0.125 RC
1 LJ
1.5 LW
N
563 162 M
572 171 L
S
GR
GS
0.929 0.694 0.125 RC
1 LJ
1.5 LW
N
633 172 M
642 163 L
S
GR
GS
0.929 0.694 0.125 RC
1 LJ
1.5 LW
N
633 163 M
642 172 L
S
GR
GS
0.929 0.694 0.125 RC
1 LJ
1.5 LW
N
703 172 M
712 163 L
S
GR
GS
0.929 0.694 0.125 RC
1 LJ
1.5 LW
N
703 163 M
712 172 L
S
GR
GS
0.494 0.184 0.557 RC
1 LJ
1.5 LW
N
158.656 190.768 M
158.656 148.271 L
S
GR
GS
0.494 0.184 0.557 RC
1 LJ
1.5 LW
N
228.256 183.296 M
228.256 155.643 L
S
GR
GS
0.494 0.184 0.557 RC
1 LJ
1.5 LW
N
297.856 183.267 M
297.856 155.625 L
S
GR
GS
0.494 0.184 0.557 RC
1 LJ
1.5 LW
N
367.456 173.666 M
367.456 165.366 L
S
GR
GS
0.494 0.184 0.557 RC
1 LJ
1.5 LW
N
437.056 173.753 M
437.056 165.275 L
S
GR
GS
0.494 0.184 0.557 RC
1 LJ
1.5 LW
N
506.656 173.78 M
506.656 165.166 L
S
GR
GS
0.494 0.184 0.557 RC
1 LJ
1.5 LW
N
576.256 173.72 M
576.256 165.259 L
S
GR
GS
0.494 0.184 0.557 RC
1 LJ
1.5 LW
N
645.856 173.831 M
645.856 165.152 L
S
GR
GS
0.494 0.184 0.557 RC
1 LJ
1.5 LW
N
715.456 173.782 M
715.456 165.314 L
S
GR
GS
0.494 0.184 0.557 RC
1 LJ
1.5 LW
N
153.088 190.768 M
164.224 190.768 L
S
GR
GS
0.494 0.184 0.557 RC
1 LJ
1.5 LW
N
222.688 183.296 M
233.824 183.296 L
S
GR
GS
0.494 0.184 0.557 RC
1 LJ
1.5 LW
N
292.288 183.267 M
303.424 183.267 L
S
GR
GS
0.494 0.184 0.557 RC
1 LJ
1.5 LW
N
361.888 173.666 M
373.024 173.666 L
S
GR
GS
0.494 0.184 0.557 RC
1 LJ
1.5 LW
N
431.488 173.753 M
442.624 173.753 L
S
GR
GS
0.494 0.184 0.557 RC
1 LJ
1.5 LW
N
501.088 173.78 M
512.224 173.78 L
S
GR
GS
0.494 0.184 0.557 RC
1 LJ
1.5 LW
N
570.688 173.72 M
581.824 173.72 L
S
GR
GS
0.494 0.184 0.557 RC
1 LJ
1.5 LW
N
640.288 173.831 M
651.424 173.831 L
S
GR
GS
0.494 0.184 0.557 RC
1 LJ
1.5 LW
N
709.888 173.782 M
721.024 173.782 L
S
GR
GS
0.494 0.184 0.557 RC
1 LJ
1.5 LW
N
153.088 148.271 M
164.224 148.271 L
S
GR
GS
0.494 0.184 0.557 RC
1 LJ
1.5 LW
N
222.688 155.643 M
233.824 155.643 L
S
GR
GS
0.494 0.184 0.557 RC
1 LJ
1.5 LW
N
292.288 155.625 M
303.424 155.625 L
S
GR
GS
0.494 0.184 0.557 RC
1 LJ
1.5 LW
N
361.888 165.366 M
373.024 165.366 L
S
GR
GS
0.494 0.184 0.557 RC
1 LJ
1.5 LW
N
431.488 165.275 M
442.624 165.275 L
S
GR
GS
0.494 0.184 0.557 RC
1 LJ
1.5 LW
N
501.088 165.166 M
512.224 165.166 L
S
GR
GS
0.494 0.184 0.557 RC
1 LJ
1.5 LW
N
570.688 165.259 M
581.824 165.259 L
S
GR
GS
0.494 0.184 0.557 RC
1 LJ
1.5 LW
N
640.288 165.152 M
651.424 165.152 L
S
GR
GS
0.494 0.184 0.557 RC
1 LJ
1.5 LW
N
709.888 165.314 M
721.024 165.314 L
S
GR
GS
0.494 0.184 0.557 RC
1 LJ
1.5 LW
N
154 174 M
163 165 L
S
GR
GS
0.494 0.184 0.557 RC
1 LJ
1.5 LW
N
154 165 M
163 174 L
S
GR
GS
0.494 0.184 0.557 RC
1 LJ
1.5 LW
N
224 174 M
233 165 L
S
GR
GS
0.494 0.184 0.557 RC
1 LJ
1.5 LW
N
224 165 M
233 174 L
S
GR
GS
0.494 0.184 0.557 RC
1 LJ
1.5 LW
N
293 174 M
302 165 L
S
GR
GS
0.494 0.184 0.557 RC
1 LJ
1.5 LW
N
293 165 M
302 174 L
S
GR
GS
0.494 0.184 0.557 RC
1 LJ
1.5 LW
N
363 174 M
372 165 L
S
GR
GS
0.494 0.184 0.557 RC
1 LJ
1.5 LW
N
363 165 M
372 174 L
S
GR
GS
0.494 0.184 0.557 RC
1 LJ
1.5 LW
N
433 174 M
442 165 L
S
GR
GS
0.494 0.184 0.557 RC
1 LJ
1.5 LW
N
433 165 M
442 174 L
S
GR
GS
0.494 0.184 0.557 RC
1 LJ
1.5 LW
N
502 174 M
511 165 L
S
GR
GS
0.494 0.184 0.557 RC
1 LJ
1.5 LW
N
502 165 M
511 174 L
S
GR
GS
0.494 0.184 0.557 RC
1 LJ
1.5 LW
N
572 174 M
581 165 L
S
GR
GS
0.494 0.184 0.557 RC
1 LJ
1.5 LW
N
572 165 M
581 174 L
S
GR
GS
0.494 0.184 0.557 RC
1 LJ
1.5 LW
N
641 174 M
650 165 L
S
GR
GS
0.494 0.184 0.557 RC
1 LJ
1.5 LW
N
641 165 M
650 174 L
S
GR
GS
0.494 0.184 0.557 RC
1 LJ
1.5 LW
N
711 174 M
720 165 L
S
GR
GS
0.494 0.184 0.557 RC
1 LJ
1.5 LW
N
711 165 M
720 174 L
S
GR
GS
1 0 0 RC
1 LJ
1.5 LW
N
64 169.5 M
760 169.5 L
S
GR
GS
1 GC
N
631.5 537.5 M
631.5 439 L
749.5 439 L
749.5 537.5 L
cp
f
GR
GS
[1 0 0 1 670.5 450.25] CT
/Helvetica 18 F
GS
[1 0 0 1 0 0] CT
0 4.5 moveto 
1 -1 scale
(RWM) t 
GR
GR
GS
0 0.447 0.741 RC
1 LJ
1.5 LW
N
648 455 M
657 446 L
S
GR
GS
0 0.447 0.741 RC
1 LJ
1.5 LW
N
648 446 M
657 455 L
S
GR
GS
[1 0 0 1 670.5 469.25] CT
/Helvetica 18 F
GS
[1 0 0 1 0 0] CT
0 4.5 moveto 
1 -1 scale
(WallHMC) t 
GR
GR
GS
0.851 0.325 0.098 RC
1 LJ
1.5 LW
N
648 474 M
657 465 L
S
GR
GS
0.851 0.325 0.098 RC
1 LJ
1.5 LW
N
648 465 M
657 474 L
S
GR
GS
[1 0 0 1 670.5 488.25] CT
/Helvetica 18 F
GS
[1 0 0 1 0 0] CT
0 4.5 moveto 
1 -1 scale
(RLD) t 
GR
GR
GS
0.929 0.694 0.125 RC
1 LJ
1.5 LW
N
648 493 M
657 484 L
S
GR
GS
0.929 0.694 0.125 RC
1 LJ
1.5 LW
N
648 484 M
657 493 L
S
GR
GS
[1 0 0 1 670.5 507.25] CT
/Helvetica 18 F
GS
[1 0 0 1 0 0] CT
0 4.5 moveto 
1 -1 scale
(SphLMC) t 
GR
GR
GS
0.494 0.184 0.557 RC
1 LJ
1.5 LW
N
648 512 M
657 503 L
S
GR
GS
0.494 0.184 0.557 RC
1 LJ
1.5 LW
N
648 503 M
657 512 L
S
GR
GS
[1 0 0 1 670.5 526.25] CT
/Helvetica 18 F
GS
[1 0 0 1 0 0] CT
0 4.5 moveto 
1 -1 scale
(Truth) t 
GR
GR
GS
1 0 0 RC
1 LJ
1.5 LW
N
637.5 526.25 M
667.5 526.25 L
S
GR
GS
0.149 GC
10.0 ML
0.5 LW
N
631.5 537.5 M
631.5 439 L
749.5 439 L
749.5 537.5 L
cp
S
GR
%%Trailer
%%Pages: 1
%%EOF
