%!PS-Adobe-3.0 EPSF-3.0
%%Creator: (MATLAB, The Mathworks, Inc. Version 8.5.0.197613 \(R2015a\). Operating System: Mac OS X)
%%Title: /Users/LANZI/Statistics/Projects/SphHMC/SphAug/code/LDA/MD/EST.eps
%%CreationDate: 2015-04-17T17:58:44
%%Pages: (atend)
%%BoundingBox: 0 0 800 600
%%LanguageLevel: 2
%%EndComments
%%BeginProlog
%%BeginResource: procset (Apache XML Graphics Std ProcSet) 1.2 0
%%Version: 1.2 0
%%Copyright: (Copyright 2001-2003,2010 The Apache Software Foundation. License terms: http://www.apache.org/licenses/LICENSE-2.0)
/bd{bind def}bind def
/ld{load def}bd
/GR/grestore ld
/M/moveto ld
/LJ/setlinejoin ld
/C/curveto ld
/f/fill ld
/LW/setlinewidth ld
/GC/setgray ld
/t/show ld
/N/newpath ld
/CT/concat ld
/cp/closepath ld
/S/stroke ld
/L/lineto ld
/CC/setcmykcolor ld
/A/ashow ld
/GS/gsave ld
/RC/setrgbcolor ld
/RM/rmoveto ld
/ML/setmiterlimit ld
/re {4 2 roll M
1 index 0 rlineto
0 exch rlineto
neg 0 rlineto
cp } bd
/_ctm matrix def
/_tm matrix def
/BT { _ctm currentmatrix pop matrix _tm copy pop 0 0 moveto } bd
/ET { _ctm setmatrix } bd
/iTm { _ctm setmatrix _tm concat } bd
/Tm { _tm astore pop iTm 0 0 moveto } bd
/ux 0.0 def
/uy 0.0 def
/F {
  /Tp exch def
  /Tf exch def
  Tf findfont Tp scalefont setfont
  /cf Tf def  /cs Tp def
} bd
/ULS {currentpoint /uy exch def /ux exch def} bd
/ULE {
  /Tcx currentpoint pop def
  gsave
  newpath
  cf findfont cs scalefont dup
  /FontMatrix get 0 get /Ts exch def /FontInfo get dup
  /UnderlinePosition get Ts mul /To exch def
  /UnderlineThickness get Ts mul /Tt exch def
  ux uy To add moveto  Tcx uy To add lineto
  Tt setlinewidth stroke
  grestore
} bd
/OLE {
  /Tcx currentpoint pop def
  gsave
  newpath
  cf findfont cs scalefont dup
  /FontMatrix get 0 get /Ts exch def /FontInfo get dup
  /UnderlinePosition get Ts mul /To exch def
  /UnderlineThickness get Ts mul /Tt exch def
  ux uy To add cs add moveto Tcx uy To add cs add lineto
  Tt setlinewidth stroke
  grestore
} bd
/SOE {
  /Tcx currentpoint pop def
  gsave
  newpath
  cf findfont cs scalefont dup
  /FontMatrix get 0 get /Ts exch def /FontInfo get dup
  /UnderlinePosition get Ts mul /To exch def
  /UnderlineThickness get Ts mul /Tt exch def
  ux uy To add cs 10 mul 26 idiv add moveto Tcx uy To add cs 10 mul 26 idiv add lineto
  Tt setlinewidth stroke
  grestore
} bd
/QT {
/Y22 exch store
/X22 exch store
/Y21 exch store
/X21 exch store
currentpoint
/Y21 load 2 mul add 3 div exch
/X21 load 2 mul add 3 div exch
/X21 load 2 mul /X22 load add 3 div
/Y21 load 2 mul /Y22 load add 3 div
/X22 load /Y22 load curveto
} bd
/SSPD {
dup length /d exch dict def
{
/v exch def
/k exch def
currentpagedevice k known {
/cpdv currentpagedevice k get def
v cpdv ne {
/upd false def
/nullv v type /nulltype eq def
/nullcpdv cpdv type /nulltype eq def
nullv nullcpdv or
{
/upd true def
} {
/sametype v type cpdv type eq def
sametype {
v type /arraytype eq {
/vlen v length def
/cpdvlen cpdv length def
vlen cpdvlen eq {
0 1 vlen 1 sub {
/i exch def
/obj v i get def
/cpdobj cpdv i get def
obj cpdobj ne {
/upd true def
exit
} if
} for
} {
/upd true def
} ifelse
} {
v type /dicttype eq {
v {
/dv exch def
/dk exch def
/cpddv cpdv dk get def
dv cpddv ne {
/upd true def
exit
} if
} forall
} {
/upd true def
} ifelse
} ifelse
} if
} ifelse
upd true eq {
d k v put
} if
} if
} if
} forall
d length 0 gt {
d setpagedevice
} if
} bd
%%EndResource
%%BeginResource: procset (Apache XML Graphics EPS ProcSet) 1.0 0
%%Version: 1.0 0
%%Copyright: (Copyright 2002-2003 The Apache Software Foundation. License terms: http://www.apache.org/licenses/LICENSE-2.0)
/BeginEPSF { %def
/b4_Inc_state save def         % Save state for cleanup
/dict_count countdictstack def % Count objects on dict stack
/op_count count 1 sub def      % Count objects on operand stack
userdict begin                 % Push userdict on dict stack
/showpage { } def              % Redefine showpage, { } = null proc
0 setgray 0 setlinecap         % Prepare graphics state
1 setlinewidth 0 setlinejoin
10 setmiterlimit [ ] 0 setdash newpath
/languagelevel where           % If level not equal to 1 then
{pop languagelevel             % set strokeadjust and
1 ne                           % overprint to their defaults.
{false setstrokeadjust false setoverprint
} if
} if
} bd
/EndEPSF { %def
count op_count sub {pop} repeat            % Clean up stacks
countdictstack dict_count sub {end} repeat
b4_Inc_state restore
} bd
%%EndResource
%FOPBeginFontDict
%%IncludeResource: font Courier-Bold
%%IncludeResource: font Helvetica
%%IncludeResource: font Courier-BoldOblique
%%IncludeResource: font Courier-Oblique
%%IncludeResource: font Times-Roman
%%IncludeResource: font Helvetica-BoldOblique
%%IncludeResource: font Helvetica-Bold
%%IncludeResource: font Helvetica-Oblique
%%IncludeResource: font Times-BoldItalic
%%IncludeResource: font Courier
%%IncludeResource: font Times-Italic
%%IncludeResource: font Times-Bold
%%IncludeResource: font Symbol
%%IncludeResource: font ZapfDingbats
%FOPEndFontDict
%%BeginResource: encoding WinAnsiEncoding
/WinAnsiEncoding [
/.notdef /.notdef /.notdef /.notdef /.notdef
/.notdef /.notdef /.notdef /.notdef /.notdef
/.notdef /.notdef /.notdef /.notdef /.notdef
/.notdef /.notdef /.notdef /.notdef /.notdef
/.notdef /.notdef /.notdef /.notdef /.notdef
/.notdef /.notdef /.notdef /.notdef /.notdef
/.notdef /.notdef /space /exclam /quotedbl
/numbersign /dollar /percent /ampersand /quotesingle
/parenleft /parenright /asterisk /plus /comma
/hyphen /period /slash /zero /one
/two /three /four /five /six
/seven /eight /nine /colon /semicolon
/less /equal /greater /question /at
/A /B /C /D /E
/F /G /H /I /J
/K /L /M /N /O
/P /Q /R /S /T
/U /V /W /X /Y
/Z /bracketleft /backslash /bracketright /asciicircum
/underscore /quoteleft /a /b /c
/d /e /f /g /h
/i /j /k /l /m
/n /o /p /q /r
/s /t /u /v /w
/x /y /z /braceleft /bar
/braceright /asciitilde /bullet /Euro /bullet
/quotesinglbase /florin /quotedblbase /ellipsis /dagger
/daggerdbl /circumflex /perthousand /Scaron /guilsinglleft
/OE /bullet /Zcaron /bullet /bullet
/quoteleft /quoteright /quotedblleft /quotedblright /bullet
/endash /emdash /asciitilde /trademark /scaron
/guilsinglright /oe /bullet /zcaron /Ydieresis
/space /exclamdown /cent /sterling /currency
/yen /brokenbar /section /dieresis /copyright
/ordfeminine /guillemotleft /logicalnot /sfthyphen /registered
/macron /degree /plusminus /twosuperior /threesuperior
/acute /mu /paragraph /middot /cedilla
/onesuperior /ordmasculine /guillemotright /onequarter /onehalf
/threequarters /questiondown /Agrave /Aacute /Acircumflex
/Atilde /Adieresis /Aring /AE /Ccedilla
/Egrave /Eacute /Ecircumflex /Edieresis /Igrave
/Iacute /Icircumflex /Idieresis /Eth /Ntilde
/Ograve /Oacute /Ocircumflex /Otilde /Odieresis
/multiply /Oslash /Ugrave /Uacute /Ucircumflex
/Udieresis /Yacute /Thorn /germandbls /agrave
/aacute /acircumflex /atilde /adieresis /aring
/ae /ccedilla /egrave /eacute /ecircumflex
/edieresis /igrave /iacute /icircumflex /idieresis
/eth /ntilde /ograve /oacute /ocircumflex
/otilde /odieresis /divide /oslash /ugrave
/uacute /ucircumflex /udieresis /yacute /thorn
/ydieresis
] def
%%EndResource
%FOPBeginFontReencode
/Courier-Bold findfont
dup length dict begin
  {1 index /FID ne {def} {pop pop} ifelse} forall
  /Encoding WinAnsiEncoding def
  currentdict
end
/Courier-Bold exch definefont pop
/Helvetica findfont
dup length dict begin
  {1 index /FID ne {def} {pop pop} ifelse} forall
  /Encoding WinAnsiEncoding def
  currentdict
end
/Helvetica exch definefont pop
/Courier-BoldOblique findfont
dup length dict begin
  {1 index /FID ne {def} {pop pop} ifelse} forall
  /Encoding WinAnsiEncoding def
  currentdict
end
/Courier-BoldOblique exch definefont pop
/Courier-Oblique findfont
dup length dict begin
  {1 index /FID ne {def} {pop pop} ifelse} forall
  /Encoding WinAnsiEncoding def
  currentdict
end
/Courier-Oblique exch definefont pop
/Times-Roman findfont
dup length dict begin
  {1 index /FID ne {def} {pop pop} ifelse} forall
  /Encoding WinAnsiEncoding def
  currentdict
end
/Times-Roman exch definefont pop
/Helvetica-BoldOblique findfont
dup length dict begin
  {1 index /FID ne {def} {pop pop} ifelse} forall
  /Encoding WinAnsiEncoding def
  currentdict
end
/Helvetica-BoldOblique exch definefont pop
/Helvetica-Bold findfont
dup length dict begin
  {1 index /FID ne {def} {pop pop} ifelse} forall
  /Encoding WinAnsiEncoding def
  currentdict
end
/Helvetica-Bold exch definefont pop
/Helvetica-Oblique findfont
dup length dict begin
  {1 index /FID ne {def} {pop pop} ifelse} forall
  /Encoding WinAnsiEncoding def
  currentdict
end
/Helvetica-Oblique exch definefont pop
/Times-BoldItalic findfont
dup length dict begin
  {1 index /FID ne {def} {pop pop} ifelse} forall
  /Encoding WinAnsiEncoding def
  currentdict
end
/Times-BoldItalic exch definefont pop
/Courier findfont
dup length dict begin
  {1 index /FID ne {def} {pop pop} ifelse} forall
  /Encoding WinAnsiEncoding def
  currentdict
end
/Courier exch definefont pop
/Times-Italic findfont
dup length dict begin
  {1 index /FID ne {def} {pop pop} ifelse} forall
  /Encoding WinAnsiEncoding def
  currentdict
end
/Times-Italic exch definefont pop
/Times-Bold findfont
dup length dict begin
  {1 index /FID ne {def} {pop pop} ifelse} forall
  /Encoding WinAnsiEncoding def
  currentdict
end
/Times-Bold exch definefont pop
%FOPEndFontReencode
%%EndProlog
%%Page: 1 1
%%PageBoundingBox: 0 0 800 600
%%BeginPageSetup
[1 0 0 -1 0 600] CT
%%EndPageSetup
GS
1 GC
N
0 0 800 600 re
f
GR
GS
1 GC
N
0 0 800 600 re
f
GR
GS
1 GC
N
104 534 M
724 534 L
724 45 L
104 45 L
cp
f
GR
GS
[1 0 0 1 414.00031 552.40002] CT
0.149 GC
/Helvetica 15 F
GS
[1 0 0 1 0 0] CT
-30.5 12 moveto 
1 -1 scale
(Category) t 
GR
GR
GS
0.149 GC
2 setlinecap
10.0 ML
N
104 534 M
724 534 L
S
GR
GS
0.149 GC
2 setlinecap
10.0 ML
N
104 45 M
724 45 L
S
GR
GS
0.149 GC
2 setlinecap
10.0 ML
N
104 534 M
104 527.8 L
S
GR
GS
0.149 GC
2 setlinecap
10.0 ML
N
166 534 M
166 527.8 L
S
GR
GS
0.149 GC
2 setlinecap
10.0 ML
N
228 534 M
228 527.8 L
S
GR
GS
0.149 GC
2 setlinecap
10.0 ML
N
290 534 M
290 527.8 L
S
GR
GS
0.149 GC
2 setlinecap
10.0 ML
N
352 534 M
352 527.8 L
S
GR
GS
0.149 GC
2 setlinecap
10.0 ML
N
414 534 M
414 527.8 L
S
GR
GS
0.149 GC
2 setlinecap
10.0 ML
N
476 534 M
476 527.8 L
S
GR
GS
0.149 GC
2 setlinecap
10.0 ML
N
538 534 M
538 527.8 L
S
GR
GS
0.149 GC
2 setlinecap
10.0 ML
N
600 534 M
600 527.8 L
S
GR
GS
0.149 GC
2 setlinecap
10.0 ML
N
662 534 M
662 527.8 L
S
GR
GS
0.149 GC
2 setlinecap
10.0 ML
N
724 534 M
724 527.8 L
S
GR
GS
0.149 GC
2 setlinecap
10.0 ML
N
104 45 M
104 51.2 L
S
GR
GS
0.149 GC
2 setlinecap
10.0 ML
N
166 45 M
166 51.2 L
S
GR
GS
0.149 GC
2 setlinecap
10.0 ML
N
228 45 M
228 51.2 L
S
GR
GS
0.149 GC
2 setlinecap
10.0 ML
N
290 45 M
290 51.2 L
S
GR
GS
0.149 GC
2 setlinecap
10.0 ML
N
352 45 M
352 51.2 L
S
GR
GS
0.149 GC
2 setlinecap
10.0 ML
N
414 45 M
414 51.2 L
S
GR
GS
0.149 GC
2 setlinecap
10.0 ML
N
476 45 M
476 51.2 L
S
GR
GS
0.149 GC
2 setlinecap
10.0 ML
N
538 45 M
538 51.2 L
S
GR
GS
0.149 GC
2 setlinecap
10.0 ML
N
600 45 M
600 51.2 L
S
GR
GS
0.149 GC
2 setlinecap
10.0 ML
N
662 45 M
662 51.2 L
S
GR
GS
0.149 GC
2 setlinecap
10.0 ML
N
724 45 M
724 51.2 L
S
GR
GS
[1 0 0 1 104 538.40002] CT
0.149 GC
/Helvetica 12 F
GS
[1 0 0 1 0 0] CT
-3.5 10 moveto 
1 -1 scale
(0) t 
GR
GR
GS
[1 0 0 1 166 538.40002] CT
0.149 GC
/Helvetica 12 F
GS
[1 0 0 1 0 0] CT
-3.5 10 moveto 
1 -1 scale
(1) t 
GR
GR
GS
[1 0 0 1 228 538.40002] CT
0.149 GC
/Helvetica 12 F
GS
[1 0 0 1 0 0] CT
-3.5 10 moveto 
1 -1 scale
(2) t 
GR
GR
GS
[1 0 0 1 290 538.40002] CT
0.149 GC
/Helvetica 12 F
GS
[1 0 0 1 0 0] CT
-3.5 10 moveto 
1 -1 scale
(3) t 
GR
GR
GS
[1 0 0 1 352 538.40002] CT
0.149 GC
/Helvetica 12 F
GS
[1 0 0 1 0 0] CT
-3.5 10 moveto 
1 -1 scale
(4) t 
GR
GR
GS
[1 0 0 1 414 538.40002] CT
0.149 GC
/Helvetica 12 F
GS
[1 0 0 1 0 0] CT
-3.5 10 moveto 
1 -1 scale
(5) t 
GR
GR
GS
[1 0 0 1 476 538.40002] CT
0.149 GC
/Helvetica 12 F
GS
[1 0 0 1 0 0] CT
-3.5 10 moveto 
1 -1 scale
(6) t 
GR
GR
GS
[1 0 0 1 538 538.40002] CT
0.149 GC
/Helvetica 12 F
GS
[1 0 0 1 0 0] CT
-3.5 10 moveto 
1 -1 scale
(7) t 
GR
GR
GS
[1 0 0 1 600 538.40002] CT
0.149 GC
/Helvetica 12 F
GS
[1 0 0 1 0 0] CT
-3.5 10 moveto 
1 -1 scale
(8) t 
GR
GR
GS
[1 0 0 1 662 538.40002] CT
0.149 GC
/Helvetica 12 F
GS
[1 0 0 1 0 0] CT
-3.5 10 moveto 
1 -1 scale
(9) t 
GR
GR
GS
[1 0 0 1 724 538.40002] CT
0.149 GC
/Helvetica 12 F
GS
[1 0 0 1 0 0] CT
-7 10 moveto 
1 -1 scale
(10) t 
GR
GR
GS
[0 -1 1 0 75.6 289.49979] CT
0.149 GC
/Helvetica 15 F
GS
[1 0 0 1 0 0] CT
-130.5 -4 moveto 
1 -1 scale
(Estimated Probability adjusted by Truth) t 
GR
GR
GS
0.149 GC
2 setlinecap
10.0 ML
N
104 534 M
104 45 L
S
GR
GS
0.149 GC
2 setlinecap
10.0 ML
N
724 534 M
724 45 L
S
GR
GS
0.149 GC
2 setlinecap
10.0 ML
N
104 534 M
110.2 534 L
S
GR
GS
0.149 GC
2 setlinecap
10.0 ML
N
104 472.875 M
110.2 472.875 L
S
GR
GS
0.149 GC
2 setlinecap
10.0 ML
N
104 411.75 M
110.2 411.75 L
S
GR
GS
0.149 GC
2 setlinecap
10.0 ML
N
104 350.625 M
110.2 350.625 L
S
GR
GS
0.149 GC
2 setlinecap
10.0 ML
N
104 289.5 M
110.2 289.5 L
S
GR
GS
0.149 GC
2 setlinecap
10.0 ML
N
104 228.375 M
110.2 228.375 L
S
GR
GS
0.149 GC
2 setlinecap
10.0 ML
N
104 167.25 M
110.2 167.25 L
S
GR
GS
0.149 GC
2 setlinecap
10.0 ML
N
104 106.125 M
110.2 106.125 L
S
GR
GS
0.149 GC
2 setlinecap
10.0 ML
N
104 45 M
110.2 45 L
S
GR
GS
0.149 GC
2 setlinecap
10.0 ML
N
724 534 M
717.8 534 L
S
GR
GS
0.149 GC
2 setlinecap
10.0 ML
N
724 472.875 M
717.8 472.875 L
S
GR
GS
0.149 GC
2 setlinecap
10.0 ML
N
724 411.75 M
717.8 411.75 L
S
GR
GS
0.149 GC
2 setlinecap
10.0 ML
N
724 350.625 M
717.8 350.625 L
S
GR
GS
0.149 GC
2 setlinecap
10.0 ML
N
724 289.5 M
717.8 289.5 L
S
GR
GS
0.149 GC
2 setlinecap
10.0 ML
N
724 228.375 M
717.8 228.375 L
S
GR
GS
0.149 GC
2 setlinecap
10.0 ML
N
724 167.25 M
717.8 167.25 L
S
GR
GS
0.149 GC
2 setlinecap
10.0 ML
N
724 106.125 M
717.8 106.125 L
S
GR
GS
0.149 GC
2 setlinecap
10.0 ML
N
724 45 M
717.8 45 L
S
GR
GS
[1 0 0 1 99.6 534] CT
0.149 GC
/Helvetica 12 F
GS
[1 0 0 1 0 0] CT
-21 3.5 moveto 
1 -1 scale
(-0.6) t 
GR
GR
GS
[1 0 0 1 99.6 472.875] CT
0.149 GC
/Helvetica 12 F
GS
[1 0 0 1 0 0] CT
-21 3.5 moveto 
1 -1 scale
(-0.5) t 
GR
GR
GS
[1 0 0 1 99.6 411.75] CT
0.149 GC
/Helvetica 12 F
GS
[1 0 0 1 0 0] CT
-21 3.5 moveto 
1 -1 scale
(-0.4) t 
GR
GR
GS
[1 0 0 1 99.6 350.625] CT
0.149 GC
/Helvetica 12 F
GS
[1 0 0 1 0 0] CT
-21 3.5 moveto 
1 -1 scale
(-0.3) t 
GR
GR
GS
[1 0 0 1 99.6 289.5] CT
0.149 GC
/Helvetica 12 F
GS
[1 0 0 1 0 0] CT
-21 3.5 moveto 
1 -1 scale
(-0.2) t 
GR
GR
GS
[1 0 0 1 99.6 228.375] CT
0.149 GC
/Helvetica 12 F
GS
[1 0 0 1 0 0] CT
-21 3.5 moveto 
1 -1 scale
(-0.1) t 
GR
GR
GS
[1 0 0 1 99.6 167.25] CT
0.149 GC
/Helvetica 12 F
GS
[1 0 0 1 0 0] CT
-7 3.5 moveto 
1 -1 scale
(0) t 
GR
GR
GS
[1 0 0 1 99.6 106.125] CT
0.149 GC
/Helvetica 12 F
GS
[1 0 0 1 0 0] CT
-17 3.5 moveto 
1 -1 scale
(0.1) t 
GR
GR
GS
[1 0 0 1 99.6 45] CT
0.149 GC
/Helvetica 12 F
GS
[1 0 0 1 0 0] CT
-17 3.5 moveto 
1 -1 scale
(0.2) t 
GR
GR
GS
0 0.447 0.741 RC
2 setlinecap
10.0 ML
1.5 LW
N
166 499.638 M
166 369.801 L
S
GR
GS
0 0.447 0.741 RC
2 setlinecap
10.0 ML
1.5 LW
N
228 148.8 M
228 90.23 L
S
GR
GS
0 0.447 0.741 RC
2 setlinecap
10.0 ML
1.5 LW
N
290 124.923 M
290 91.679 L
S
GR
GS
0 0.447 0.741 RC
2 setlinecap
10.0 ML
1.5 LW
N
352 162.455 M
352 134.637 L
S
GR
GS
0 0.447 0.741 RC
2 setlinecap
10.0 ML
1.5 LW
N
414 159.684 M
414 115.044 L
S
GR
GS
0 0.447 0.741 RC
2 setlinecap
10.0 ML
1.5 LW
N
476 164.901 M
476 110.136 L
S
GR
GS
0 0.447 0.741 RC
2 setlinecap
10.0 ML
1.5 LW
N
538 168.298 M
538 128.667 L
S
GR
GS
0 0.447 0.741 RC
2 setlinecap
10.0 ML
1.5 LW
N
600 120.653 M
600 101.269 L
S
GR
GS
0 0.447 0.741 RC
2 setlinecap
10.0 ML
1.5 LW
N
662 169.909 M
662 155.281 L
S
GR
GS
0 0.447 0.741 RC
2 setlinecap
10.0 ML
1.5 LW
N
161.04 499.638 M
170.96 499.638 L
S
GR
GS
0 0.447 0.741 RC
2 setlinecap
10.0 ML
1.5 LW
N
223.04 148.8 M
232.96 148.8 L
S
GR
GS
0 0.447 0.741 RC
2 setlinecap
10.0 ML
1.5 LW
N
285.04 124.923 M
294.96 124.923 L
S
GR
GS
0 0.447 0.741 RC
2 setlinecap
10.0 ML
1.5 LW
N
347.04 162.455 M
356.96 162.455 L
S
GR
GS
0 0.447 0.741 RC
2 setlinecap
10.0 ML
1.5 LW
N
409.04 159.684 M
418.96 159.684 L
S
GR
GS
0 0.447 0.741 RC
2 setlinecap
10.0 ML
1.5 LW
N
471.04 164.901 M
480.96 164.901 L
S
GR
GS
0 0.447 0.741 RC
2 setlinecap
10.0 ML
1.5 LW
N
533.04 168.298 M
542.96 168.298 L
S
GR
GS
0 0.447 0.741 RC
2 setlinecap
10.0 ML
1.5 LW
N
595.04 120.653 M
604.96 120.653 L
S
GR
GS
0 0.447 0.741 RC
2 setlinecap
10.0 ML
1.5 LW
N
657.04 169.909 M
666.96 169.909 L
S
GR
GS
0 0.447 0.741 RC
2 setlinecap
10.0 ML
1.5 LW
N
161.04 369.801 M
170.96 369.801 L
S
GR
GS
0 0.447 0.741 RC
2 setlinecap
10.0 ML
1.5 LW
N
223.04 90.23 M
232.96 90.23 L
S
GR
GS
0 0.447 0.741 RC
2 setlinecap
10.0 ML
1.5 LW
N
285.04 91.679 M
294.96 91.679 L
S
GR
GS
0 0.447 0.741 RC
2 setlinecap
10.0 ML
1.5 LW
N
347.04 134.637 M
356.96 134.637 L
S
GR
GS
0 0.447 0.741 RC
2 setlinecap
10.0 ML
1.5 LW
N
409.04 115.044 M
418.96 115.044 L
S
GR
GS
0 0.447 0.741 RC
2 setlinecap
10.0 ML
1.5 LW
N
471.04 110.136 M
480.96 110.136 L
S
GR
GS
0 0.447 0.741 RC
2 setlinecap
10.0 ML
1.5 LW
N
533.04 128.667 M
542.96 128.667 L
S
GR
GS
0 0.447 0.741 RC
2 setlinecap
10.0 ML
1.5 LW
N
595.04 101.269 M
604.96 101.269 L
S
GR
GS
0 0.447 0.741 RC
2 setlinecap
10.0 ML
1.5 LW
N
657.04 155.281 M
666.96 155.281 L
S
GR
GS
0 0.447 0.741 RC
2 setlinecap
10.0 ML
1.5 LW
N
161 439 M
170 430 L
S
GR
GS
0 0.447 0.741 RC
2 setlinecap
10.0 ML
1.5 LW
N
161 430 M
170 439 L
S
GR
GS
0 0.447 0.741 RC
2 setlinecap
10.0 ML
1.5 LW
N
223 124 M
232 115 L
S
GR
GS
0 0.447 0.741 RC
2 setlinecap
10.0 ML
1.5 LW
N
223 115 M
232 124 L
S
GR
GS
0 0.447 0.741 RC
2 setlinecap
10.0 ML
1.5 LW
N
285 113 M
294 104 L
S
GR
GS
0 0.447 0.741 RC
2 setlinecap
10.0 ML
1.5 LW
N
285 104 M
294 113 L
S
GR
GS
0 0.447 0.741 RC
2 setlinecap
10.0 ML
1.5 LW
N
347 153 M
356 144 L
S
GR
GS
0 0.447 0.741 RC
2 setlinecap
10.0 ML
1.5 LW
N
347 144 M
356 153 L
S
GR
GS
0 0.447 0.741 RC
2 setlinecap
10.0 ML
1.5 LW
N
410 142 M
419 133 L
S
GR
GS
0 0.447 0.741 RC
2 setlinecap
10.0 ML
1.5 LW
N
410 133 M
419 142 L
S
GR
GS
0 0.447 0.741 RC
2 setlinecap
10.0 ML
1.5 LW
N
472 142 M
481 133 L
S
GR
GS
0 0.447 0.741 RC
2 setlinecap
10.0 ML
1.5 LW
N
472 133 M
481 142 L
S
GR
GS
0 0.447 0.741 RC
2 setlinecap
10.0 ML
1.5 LW
N
534 153 M
543 144 L
S
GR
GS
0 0.447 0.741 RC
2 setlinecap
10.0 ML
1.5 LW
N
534 144 M
543 153 L
S
GR
GS
0 0.447 0.741 RC
2 setlinecap
10.0 ML
1.5 LW
N
596 115 M
605 106 L
S
GR
GS
0 0.447 0.741 RC
2 setlinecap
10.0 ML
1.5 LW
N
596 106 M
605 115 L
S
GR
GS
0 0.447 0.741 RC
2 setlinecap
10.0 ML
1.5 LW
N
658 167 M
667 158 L
S
GR
GS
0 0.447 0.741 RC
2 setlinecap
10.0 ML
1.5 LW
N
658 158 M
667 167 L
S
GR
GS
0.851 0.325 0.098 RC
2 setlinecap
10.0 ML
1.5 LW
N
173.44 440.898 M
173.44 300.253 L
S
GR
GS
0.851 0.325 0.098 RC
2 setlinecap
10.0 ML
1.5 LW
N
235.44 157.748 M
235.44 122.468 L
S
GR
GS
0.851 0.325 0.098 RC
2 setlinecap
10.0 ML
1.5 LW
N
297.44 125.851 M
297.44 105.187 L
S
GR
GS
0.851 0.325 0.098 RC
2 setlinecap
10.0 ML
1.5 LW
N
359.44 172.226 M
359.44 149.458 L
S
GR
GS
0.851 0.325 0.098 RC
2 setlinecap
10.0 ML
1.5 LW
N
421.44 150.212 M
421.44 113.147 L
S
GR
GS
0.851 0.325 0.098 RC
2 setlinecap
10.0 ML
1.5 LW
N
483.44 144.402 M
483.44 89.38 L
S
GR
GS
0.851 0.325 0.098 RC
2 setlinecap
10.0 ML
1.5 LW
N
545.44 169.426 M
545.44 156.286 L
S
GR
GS
0.851 0.325 0.098 RC
2 setlinecap
10.0 ML
1.5 LW
N
607.44 168.897 M
607.44 137.393 L
S
GR
GS
0.851 0.325 0.098 RC
2 setlinecap
10.0 ML
1.5 LW
N
669.44 167.724 M
669.44 147.065 L
S
GR
GS
0.851 0.325 0.098 RC
2 setlinecap
10.0 ML
1.5 LW
N
168.48 440.898 M
178.4 440.898 L
S
GR
GS
0.851 0.325 0.098 RC
2 setlinecap
10.0 ML
1.5 LW
N
230.48 157.748 M
240.4 157.748 L
S
GR
GS
0.851 0.325 0.098 RC
2 setlinecap
10.0 ML
1.5 LW
N
292.48 125.851 M
302.4 125.851 L
S
GR
GS
0.851 0.325 0.098 RC
2 setlinecap
10.0 ML
1.5 LW
N
354.48 172.226 M
364.4 172.226 L
S
GR
GS
0.851 0.325 0.098 RC
2 setlinecap
10.0 ML
1.5 LW
N
416.48 150.212 M
426.4 150.212 L
S
GR
GS
0.851 0.325 0.098 RC
2 setlinecap
10.0 ML
1.5 LW
N
478.48 144.402 M
488.4 144.402 L
S
GR
GS
0.851 0.325 0.098 RC
2 setlinecap
10.0 ML
1.5 LW
N
540.48 169.426 M
550.4 169.426 L
S
GR
GS
0.851 0.325 0.098 RC
2 setlinecap
10.0 ML
1.5 LW
N
602.48 168.897 M
612.4 168.897 L
S
GR
GS
0.851 0.325 0.098 RC
2 setlinecap
10.0 ML
1.5 LW
N
664.48 167.724 M
674.4 167.724 L
S
GR
GS
0.851 0.325 0.098 RC
2 setlinecap
10.0 ML
1.5 LW
N
168.48 300.253 M
178.4 300.253 L
S
GR
GS
0.851 0.325 0.098 RC
2 setlinecap
10.0 ML
1.5 LW
N
230.48 122.468 M
240.4 122.468 L
S
GR
GS
0.851 0.325 0.098 RC
2 setlinecap
10.0 ML
1.5 LW
N
292.48 105.187 M
302.4 105.187 L
S
GR
GS
0.851 0.325 0.098 RC
2 setlinecap
10.0 ML
1.5 LW
N
354.48 149.458 M
364.4 149.458 L
S
GR
GS
0.851 0.325 0.098 RC
2 setlinecap
10.0 ML
1.5 LW
N
416.48 113.147 M
426.4 113.147 L
S
GR
GS
0.851 0.325 0.098 RC
2 setlinecap
10.0 ML
1.5 LW
N
478.48 89.38 M
488.4 89.38 L
S
GR
GS
0.851 0.325 0.098 RC
2 setlinecap
10.0 ML
1.5 LW
N
540.48 156.286 M
550.4 156.286 L
S
GR
GS
0.851 0.325 0.098 RC
2 setlinecap
10.0 ML
1.5 LW
N
602.48 137.393 M
612.4 137.393 L
S
GR
GS
0.851 0.325 0.098 RC
2 setlinecap
10.0 ML
1.5 LW
N
664.48 147.065 M
674.4 147.065 L
S
GR
GS
0.851 0.325 0.098 RC
2 setlinecap
10.0 ML
1.5 LW
N
169 375 M
178 366 L
S
GR
GS
0.851 0.325 0.098 RC
2 setlinecap
10.0 ML
1.5 LW
N
169 366 M
178 375 L
S
GR
GS
0.851 0.325 0.098 RC
2 setlinecap
10.0 ML
1.5 LW
N
231 145 M
240 136 L
S
GR
GS
0.851 0.325 0.098 RC
2 setlinecap
10.0 ML
1.5 LW
N
231 136 M
240 145 L
S
GR
GS
0.851 0.325 0.098 RC
2 setlinecap
10.0 ML
1.5 LW
N
293 120 M
302 111 L
S
GR
GS
0.851 0.325 0.098 RC
2 setlinecap
10.0 ML
1.5 LW
N
293 111 M
302 120 L
S
GR
GS
0.851 0.325 0.098 RC
2 setlinecap
10.0 ML
1.5 LW
N
355 165 M
364 156 L
S
GR
GS
0.851 0.325 0.098 RC
2 setlinecap
10.0 ML
1.5 LW
N
355 156 M
364 165 L
S
GR
GS
0.851 0.325 0.098 RC
2 setlinecap
10.0 ML
1.5 LW
N
417 136 M
426 127 L
S
GR
GS
0.851 0.325 0.098 RC
2 setlinecap
10.0 ML
1.5 LW
N
417 127 M
426 136 L
S
GR
GS
0.851 0.325 0.098 RC
2 setlinecap
10.0 ML
1.5 LW
N
479 121 M
488 112 L
S
GR
GS
0.851 0.325 0.098 RC
2 setlinecap
10.0 ML
1.5 LW
N
479 112 M
488 121 L
S
GR
GS
0.851 0.325 0.098 RC
2 setlinecap
10.0 ML
1.5 LW
N
541 167 M
550 158 L
S
GR
GS
0.851 0.325 0.098 RC
2 setlinecap
10.0 ML
1.5 LW
N
541 158 M
550 167 L
S
GR
GS
0.851 0.325 0.098 RC
2 setlinecap
10.0 ML
1.5 LW
N
603 158 M
612 149 L
S
GR
GS
0.851 0.325 0.098 RC
2 setlinecap
10.0 ML
1.5 LW
N
603 149 M
612 158 L
S
GR
GS
0.851 0.325 0.098 RC
2 setlinecap
10.0 ML
1.5 LW
N
665 162 M
674 153 L
S
GR
GS
0.851 0.325 0.098 RC
2 setlinecap
10.0 ML
1.5 LW
N
665 153 M
674 162 L
S
GR
GS
0.929 0.694 0.125 RC
2 setlinecap
10.0 ML
1.5 LW
N
180.88 210.578 M
180.88 166.351 L
S
GR
GS
0.929 0.694 0.125 RC
2 setlinecap
10.0 ML
1.5 LW
N
242.88 179.345 M
242.88 152.085 L
S
GR
GS
0.929 0.694 0.125 RC
2 setlinecap
10.0 ML
1.5 LW
N
304.88 179.43 M
304.88 152.947 L
S
GR
GS
0.929 0.694 0.125 RC
2 setlinecap
10.0 ML
1.5 LW
N
366.88 170.313 M
366.88 158.207 L
S
GR
GS
0.929 0.694 0.125 RC
2 setlinecap
10.0 ML
1.5 LW
N
428.88 170.168 M
428.88 158.833 L
S
GR
GS
0.929 0.694 0.125 RC
2 setlinecap
10.0 ML
1.5 LW
N
490.88 170.014 M
490.88 159.342 L
S
GR
GS
0.929 0.694 0.125 RC
2 setlinecap
10.0 ML
1.5 LW
N
552.88 170.159 M
552.88 159.371 L
S
GR
GS
0.929 0.694 0.125 RC
2 setlinecap
10.0 ML
1.5 LW
N
614.88 170.11 M
614.88 159.656 L
S
GR
GS
0.929 0.694 0.125 RC
2 setlinecap
10.0 ML
1.5 LW
N
676.88 170.184 M
676.88 159.778 L
S
GR
GS
0.929 0.694 0.125 RC
2 setlinecap
10.0 ML
1.5 LW
N
175.92 210.578 M
185.84 210.578 L
S
GR
GS
0.929 0.694 0.125 RC
2 setlinecap
10.0 ML
1.5 LW
N
237.92 179.345 M
247.84 179.345 L
S
GR
GS
0.929 0.694 0.125 RC
2 setlinecap
10.0 ML
1.5 LW
N
299.92 179.43 M
309.84 179.43 L
S
GR
GS
0.929 0.694 0.125 RC
2 setlinecap
10.0 ML
1.5 LW
N
361.92 170.313 M
371.84 170.313 L
S
GR
GS
0.929 0.694 0.125 RC
2 setlinecap
10.0 ML
1.5 LW
N
423.92 170.168 M
433.84 170.168 L
S
GR
GS
0.929 0.694 0.125 RC
2 setlinecap
10.0 ML
1.5 LW
N
485.92 170.014 M
495.84 170.014 L
S
GR
GS
0.929 0.694 0.125 RC
2 setlinecap
10.0 ML
1.5 LW
N
547.92 170.159 M
557.84 170.159 L
S
GR
GS
0.929 0.694 0.125 RC
2 setlinecap
10.0 ML
1.5 LW
N
609.92 170.11 M
619.84 170.11 L
S
GR
GS
0.929 0.694 0.125 RC
2 setlinecap
10.0 ML
1.5 LW
N
671.92 170.184 M
681.84 170.184 L
S
GR
GS
0.929 0.694 0.125 RC
2 setlinecap
10.0 ML
1.5 LW
N
175.92 166.351 M
185.84 166.351 L
S
GR
GS
0.929 0.694 0.125 RC
2 setlinecap
10.0 ML
1.5 LW
N
237.92 152.085 M
247.84 152.085 L
S
GR
GS
0.929 0.694 0.125 RC
2 setlinecap
10.0 ML
1.5 LW
N
299.92 152.947 M
309.84 152.947 L
S
GR
GS
0.929 0.694 0.125 RC
2 setlinecap
10.0 ML
1.5 LW
N
361.92 158.207 M
371.84 158.207 L
S
GR
GS
0.929 0.694 0.125 RC
2 setlinecap
10.0 ML
1.5 LW
N
423.92 158.833 M
433.84 158.833 L
S
GR
GS
0.929 0.694 0.125 RC
2 setlinecap
10.0 ML
1.5 LW
N
485.92 159.342 M
495.84 159.342 L
S
GR
GS
0.929 0.694 0.125 RC
2 setlinecap
10.0 ML
1.5 LW
N
547.92 159.371 M
557.84 159.371 L
S
GR
GS
0.929 0.694 0.125 RC
2 setlinecap
10.0 ML
1.5 LW
N
609.92 159.656 M
619.84 159.656 L
S
GR
GS
0.929 0.694 0.125 RC
2 setlinecap
10.0 ML
1.5 LW
N
671.92 159.778 M
681.84 159.778 L
S
GR
GS
0.929 0.694 0.125 RC
2 setlinecap
10.0 ML
1.5 LW
N
176 193 M
185 184 L
S
GR
GS
0.929 0.694 0.125 RC
2 setlinecap
10.0 ML
1.5 LW
N
176 184 M
185 193 L
S
GR
GS
0.929 0.694 0.125 RC
2 setlinecap
10.0 ML
1.5 LW
N
238 170 M
247 161 L
S
GR
GS
0.929 0.694 0.125 RC
2 setlinecap
10.0 ML
1.5 LW
N
238 161 M
247 170 L
S
GR
GS
0.929 0.694 0.125 RC
2 setlinecap
10.0 ML
1.5 LW
N
300 171 M
309 162 L
S
GR
GS
0.929 0.694 0.125 RC
2 setlinecap
10.0 ML
1.5 LW
N
300 162 M
309 171 L
S
GR
GS
0.929 0.694 0.125 RC
2 setlinecap
10.0 ML
1.5 LW
N
362 169 M
371 160 L
S
GR
GS
0.929 0.694 0.125 RC
2 setlinecap
10.0 ML
1.5 LW
N
362 160 M
371 169 L
S
GR
GS
0.929 0.694 0.125 RC
2 setlinecap
10.0 ML
1.5 LW
N
424 169 M
433 160 L
S
GR
GS
0.929 0.694 0.125 RC
2 setlinecap
10.0 ML
1.5 LW
N
424 160 M
433 169 L
S
GR
GS
0.929 0.694 0.125 RC
2 setlinecap
10.0 ML
1.5 LW
N
486 169 M
495 160 L
S
GR
GS
0.929 0.694 0.125 RC
2 setlinecap
10.0 ML
1.5 LW
N
486 160 M
495 169 L
S
GR
GS
0.929 0.694 0.125 RC
2 setlinecap
10.0 ML
1.5 LW
N
548 169 M
557 160 L
S
GR
GS
0.929 0.694 0.125 RC
2 setlinecap
10.0 ML
1.5 LW
N
548 160 M
557 169 L
S
GR
GS
0.929 0.694 0.125 RC
2 setlinecap
10.0 ML
1.5 LW
N
610 169 M
619 160 L
S
GR
GS
0.929 0.694 0.125 RC
2 setlinecap
10.0 ML
1.5 LW
N
610 160 M
619 169 L
S
GR
GS
0.929 0.694 0.125 RC
2 setlinecap
10.0 ML
1.5 LW
N
672 169 M
681 160 L
S
GR
GS
0.929 0.694 0.125 RC
2 setlinecap
10.0 ML
1.5 LW
N
672 160 M
681 169 L
S
GR
GS
0.494 0.184 0.557 RC
2 setlinecap
10.0 ML
1.5 LW
N
188.32 187.642 M
188.32 146.895 L
S
GR
GS
0.494 0.184 0.557 RC
2 setlinecap
10.0 ML
1.5 LW
N
250.32 180.478 M
250.32 153.964 L
S
GR
GS
0.494 0.184 0.557 RC
2 setlinecap
10.0 ML
1.5 LW
N
312.32 180.45 M
312.32 153.946 L
S
GR
GS
0.494 0.184 0.557 RC
2 setlinecap
10.0 ML
1.5 LW
N
374.32 171.244 M
374.32 163.287 L
S
GR
GS
0.494 0.184 0.557 RC
2 setlinecap
10.0 ML
1.5 LW
N
436.32 171.328 M
436.32 163.199 L
S
GR
GS
0.494 0.184 0.557 RC
2 setlinecap
10.0 ML
1.5 LW
N
498.32 171.354 M
498.32 163.094 L
S
GR
GS
0.494 0.184 0.557 RC
2 setlinecap
10.0 ML
1.5 LW
N
560.32 171.297 M
560.32 163.184 L
S
GR
GS
0.494 0.184 0.557 RC
2 setlinecap
10.0 ML
1.5 LW
N
622.32 171.403 M
622.32 163.081 L
S
GR
GS
0.494 0.184 0.557 RC
2 setlinecap
10.0 ML
1.5 LW
N
684.32 171.355 M
684.32 163.236 L
S
GR
GS
0.494 0.184 0.557 RC
2 setlinecap
10.0 ML
1.5 LW
N
183.36 187.642 M
193.28 187.642 L
S
GR
GS
0.494 0.184 0.557 RC
2 setlinecap
10.0 ML
1.5 LW
N
245.36 180.478 M
255.28 180.478 L
S
GR
GS
0.494 0.184 0.557 RC
2 setlinecap
10.0 ML
1.5 LW
N
307.36 180.45 M
317.28 180.45 L
S
GR
GS
0.494 0.184 0.557 RC
2 setlinecap
10.0 ML
1.5 LW
N
369.36 171.244 M
379.28 171.244 L
S
GR
GS
0.494 0.184 0.557 RC
2 setlinecap
10.0 ML
1.5 LW
N
431.36 171.328 M
441.28 171.328 L
S
GR
GS
0.494 0.184 0.557 RC
2 setlinecap
10.0 ML
1.5 LW
N
493.36 171.354 M
503.28 171.354 L
S
GR
GS
0.494 0.184 0.557 RC
2 setlinecap
10.0 ML
1.5 LW
N
555.36 171.297 M
565.28 171.297 L
S
GR
GS
0.494 0.184 0.557 RC
2 setlinecap
10.0 ML
1.5 LW
N
617.36 171.403 M
627.28 171.403 L
S
GR
GS
0.494 0.184 0.557 RC
2 setlinecap
10.0 ML
1.5 LW
N
679.36 171.355 M
689.28 171.355 L
S
GR
GS
0.494 0.184 0.557 RC
2 setlinecap
10.0 ML
1.5 LW
N
183.36 146.895 M
193.28 146.895 L
S
GR
GS
0.494 0.184 0.557 RC
2 setlinecap
10.0 ML
1.5 LW
N
245.36 153.964 M
255.28 153.964 L
S
GR
GS
0.494 0.184 0.557 RC
2 setlinecap
10.0 ML
1.5 LW
N
307.36 153.946 M
317.28 153.946 L
S
GR
GS
0.494 0.184 0.557 RC
2 setlinecap
10.0 ML
1.5 LW
N
369.36 163.287 M
379.28 163.287 L
S
GR
GS
0.494 0.184 0.557 RC
2 setlinecap
10.0 ML
1.5 LW
N
431.36 163.199 M
441.28 163.199 L
S
GR
GS
0.494 0.184 0.557 RC
2 setlinecap
10.0 ML
1.5 LW
N
493.36 163.094 M
503.28 163.094 L
S
GR
GS
0.494 0.184 0.557 RC
2 setlinecap
10.0 ML
1.5 LW
N
555.36 163.184 M
565.28 163.184 L
S
GR
GS
0.494 0.184 0.557 RC
2 setlinecap
10.0 ML
1.5 LW
N
617.36 163.081 M
627.28 163.081 L
S
GR
GS
0.494 0.184 0.557 RC
2 setlinecap
10.0 ML
1.5 LW
N
679.36 163.236 M
689.28 163.236 L
S
GR
GS
0.494 0.184 0.557 RC
2 setlinecap
10.0 ML
1.5 LW
N
184 172 M
193 163 L
S
GR
GS
0.494 0.184 0.557 RC
2 setlinecap
10.0 ML
1.5 LW
N
184 163 M
193 172 L
S
GR
GS
0.494 0.184 0.557 RC
2 setlinecap
10.0 ML
1.5 LW
N
246 172 M
255 163 L
S
GR
GS
0.494 0.184 0.557 RC
2 setlinecap
10.0 ML
1.5 LW
N
246 163 M
255 172 L
S
GR
GS
0.494 0.184 0.557 RC
2 setlinecap
10.0 ML
1.5 LW
N
308 172 M
317 163 L
S
GR
GS
0.494 0.184 0.557 RC
2 setlinecap
10.0 ML
1.5 LW
N
308 163 M
317 172 L
S
GR
GS
0.494 0.184 0.557 RC
2 setlinecap
10.0 ML
1.5 LW
N
370 172 M
379 163 L
S
GR
GS
0.494 0.184 0.557 RC
2 setlinecap
10.0 ML
1.5 LW
N
370 163 M
379 172 L
S
GR
GS
0.494 0.184 0.557 RC
2 setlinecap
10.0 ML
1.5 LW
N
432 172 M
441 163 L
S
GR
GS
0.494 0.184 0.557 RC
2 setlinecap
10.0 ML
1.5 LW
N
432 163 M
441 172 L
S
GR
GS
0.494 0.184 0.557 RC
2 setlinecap
10.0 ML
1.5 LW
N
494 172 M
503 163 L
S
GR
GS
0.494 0.184 0.557 RC
2 setlinecap
10.0 ML
1.5 LW
N
494 163 M
503 172 L
S
GR
GS
0.494 0.184 0.557 RC
2 setlinecap
10.0 ML
1.5 LW
N
556 172 M
565 163 L
S
GR
GS
0.494 0.184 0.557 RC
2 setlinecap
10.0 ML
1.5 LW
N
556 163 M
565 172 L
S
GR
GS
0.494 0.184 0.557 RC
2 setlinecap
10.0 ML
1.5 LW
N
618 172 M
627 163 L
S
GR
GS
0.494 0.184 0.557 RC
2 setlinecap
10.0 ML
1.5 LW
N
618 163 M
627 172 L
S
GR
GS
0.494 0.184 0.557 RC
2 setlinecap
10.0 ML
1.5 LW
N
680 172 M
689 163 L
S
GR
GS
0.494 0.184 0.557 RC
2 setlinecap
10.0 ML
1.5 LW
N
680 163 M
689 172 L
S
GR
GS
1 0 0 RC
2 setlinecap
10.0 ML
1.5 LW
N
104 167.25 M
724 167.25 L
S
GR
GS
1 GC
N
594 516 M
594 430 L
700 430 L
700 516 L
cp
f
GR
GS
[1 0 0 1 633 440] CT
/Helvetica 15 F
GS
[1 0 0 1 0 0] CT
0 4 moveto 
1 -1 scale
(RWMt) t 
GR
GR
GS
0 0.447 0.741 RC
2 setlinecap
10.0 ML
1.5 LW
N
610 444 M
619 435 L
S
GR
GS
0 0.447 0.741 RC
2 setlinecap
10.0 ML
1.5 LW
N
610 435 M
619 444 L
S
GR
GS
[1 0 0 1 633 456.5] CT
/Helvetica 15 F
GS
[1 0 0 1 0 0] CT
0 4 moveto 
1 -1 scale
(WallHMC) t 
GR
GR
GS
0.851 0.325 0.098 RC
2 setlinecap
10.0 ML
1.5 LW
N
610 461 M
619 452 L
S
GR
GS
0.851 0.325 0.098 RC
2 setlinecap
10.0 ML
1.5 LW
N
610 452 M
619 461 L
S
GR
GS
[1 0 0 1 633 473] CT
/Helvetica 15 F
GS
[1 0 0 1 0 0] CT
0 4 moveto 
1 -1 scale
(RLD) t 
GR
GR
GS
0.929 0.694 0.125 RC
2 setlinecap
10.0 ML
1.5 LW
N
610 477 M
619 468 L
S
GR
GS
0.929 0.694 0.125 RC
2 setlinecap
10.0 ML
1.5 LW
N
610 468 M
619 477 L
S
GR
GS
[1 0 0 1 633 489.5] CT
/Helvetica 15 F
GS
[1 0 0 1 0 0] CT
0 4 moveto 
1 -1 scale
(SphLMC) t 
GR
GR
GS
0.494 0.184 0.557 RC
2 setlinecap
10.0 ML
1.5 LW
N
610 494 M
619 485 L
S
GR
GS
0.494 0.184 0.557 RC
2 setlinecap
10.0 ML
1.5 LW
N
610 485 M
619 494 L
S
GR
GS
[1 0 0 1 633 506] CT
/Helvetica 15 F
GS
[1 0 0 1 0 0] CT
0 4 moveto 
1 -1 scale
(Truth) t 
GR
GR
GS
1 0 0 RC
2 setlinecap
10.0 ML
1.5 LW
N
600 506 M
630 506 L
S
GR
GS
0.149 GC
2 setlinecap
10.0 ML
N
594 516 M
594 430 L
700 430 L
700 516 L
594 516 L
S
GR
%%Trailer
%%Pages: 1
%%EOF
