\relax 
\@writefile{toc}{\contentsline {section}{\numberline {1}Review 1}{1}}
\@writefile{toc}{\contentsline {section}{\numberline {2}Review 2}{2}}
\@writefile{toc}{\contentsline {section}{\numberline {3}Decision}{4}}
