\relax 
\providecommand\hyper@newdestlabel[2]{}
\providecommand\HyperFirstAtBeginDocument{\AtBeginDocument}
\HyperFirstAtBeginDocument{\ifx\hyper@anchor\@undefined
\global\let\oldcontentsline\contentsline
\gdef\contentsline#1#2#3#4{\oldcontentsline{#1}{#2}{#3}}
\global\let\oldnewlabel\newlabel
\gdef\newlabel#1#2{\newlabelxx{#1}#2}
\gdef\newlabelxx#1#2#3#4#5#6{\oldnewlabel{#1}{{#2}{#3}}}
\AtEndDocument{\ifx\hyper@anchor\@undefined
\let\contentsline\oldcontentsline
\let\newlabel\oldnewlabel
\fi}
\fi}
\global\let\hyper@last\relax 
\gdef\HyperFirstAtBeginDocument#1{#1}
\providecommand\HyField@AuxAddToFields[1]{}
\providecommand\HyField@AuxAddToCoFields[2]{}
\immediate\closeout\minitoc
\let \MiniTOC =N
\citation{pneal08,sherlock09,pneal12,brubaker12,pakman13}
\citation{neal96a,neal93,geyer92,mykland95,propp96,roberts97,gilks98,warnes01,freitas01,brockwell06,neal11,neal05,neal03,beal03,moller06,andrieu06,kurihara06,cappe08,craiu09,welling09,gelfand10,douc07,douc11,welling11,zhang11,ahmadian11,girolami11,hoffman11,beskos11,calderhead12,shahbaba14,ahn13,lan14a,ahn14}
\citation{patterson13}
\@writefile{toc}{\contentsline {title}{Sampling Constrained Probability Distributions using Spherical Augmentation}{1}{section*.1}}
\@writefile{toc}{\authcount {1}}
\@writefile{toc}{\contentsline {author}{Shiwei Lan and Babak Shahbaba}{1}{section*.1}}
\citation{lan14b}
\citation{duane87,neal11}
\citation{lan14b}
\citation{lan14b}
\citation{lan14a}
\citation{neal11}
\citation{pakman13}
\citation{brubaker12}
\citation{byrne13}
\citation{lan14b}
\citation{byrne13}
\@writefile{toc}{\contentsline {section}{\numberline {1}Introduction}{2}{section.0.1}}
\citation{lan14a}
\@writefile{lof}{\contentsline {figure}{\numberline {1}{\ignorespaces $q$-norm constraints}}{3}{figure.0.1}}
\newlabel{fig:constraints}{{1}{3}{$q$-norm constraints}{figure.0.1}{}}
\@writefile{toc}{\contentsline {section}{\numberline {2}Preliminaries}{3}{section.0.2}}
\newlabel{prelim}{{2}{3}{Preliminaries}{section.0.2}{}}
\@writefile{toc}{\contentsline {subsection}{\numberline {2.1}Hamiltonian Monte Carlo}{3}{subsection.0.2.1}}
\newlabel{HMC}{{2.1}{3}{Hamiltonian Monte Carlo}{subsection.0.2.1}{}}
\citation{neal11}
\citation{neal11}
\citation{girolami11}
\citation{amari00}
\citation{girolami11}
\citation{lan14a}
\newlabel{Hamiltonian}{{1}{4}{Hamiltonian Monte Carlo}{equation.0.2.1}{}}
\@writefile{toc}{\contentsline {subsection}{\numberline {2.2}Lagrangian Monte Carlo}{4}{subsection.0.2.2}}
\newlabel{LMC}{{2.2}{4}{Lagrangian Monte Carlo}{subsection.0.2.2}{}}
\newlabel{rmhamiltonp}{{3}{4}{Lagrangian Monte Carlo}{equation.0.2.3}{}}
\citation{lan14a}
\citation{beskos11,lan14a}
\newlabel{LD}{{4}{5}{Lagrangian Monte Carlo}{equation.0.2.4}{}}
\@writefile{toc}{\contentsline {section}{\numberline {3}Spherical Augmentation}{5}{section.0.3}}
\newlabel{SA}{{3}{5}{Spherical Augmentation}{section.0.3}{}}
\@writefile{toc}{\contentsline {subsection}{\numberline {3.1}Ball type constraints}{5}{subsection.0.3.1}}
\newlabel{ball}{{3.1}{5}{Ball type constraints}{subsection.0.3.1}{}}
\citation{spivak65}
\@writefile{lof}{\contentsline {figure}{\numberline {2}{\ignorespaces Transforming the unit ball $\mathcal  B_{\bf  0}^D(1)$ to the sphere $\mathcal  S^D$.}}{6}{figure.0.2}}
\newlabel{fig:B2S}{{2}{6}{Transforming the unit ball $\mathcal B_{\bf 0}^D(1)$ to the sphere $\mathcal S^D$}{figure.0.2}{}}
\newlabel{b2s}{{5}{6}{Ball type constraints}{equation.0.3.5}{}}
\newlabel{domainB2S}{{6}{6}{Ball type constraints}{equation.0.3.6}{}}
\@writefile{lof}{\contentsline {figure}{\numberline {3}{\ignorespaces Transforming the hyper-rectangle $\mathcal  R_{\bf  0}^D$ to the sphere $\mathcal  S^D$.}}{7}{figure.0.3}}
\newlabel{fig:R2S}{{3}{7}{Transforming the hyper-rectangle $\mathcal R_{\bf 0}^D$ to the sphere $\mathcal S^D$}{figure.0.3}{}}
\@writefile{toc}{\contentsline {subsection}{\numberline {3.2}Box type constraints}{7}{subsection.0.3.2}}
\newlabel{box}{{3.2}{7}{Box type constraints}{subsection.0.3.2}{}}
\newlabel{r2s}{{7}{7}{Box type constraints}{equation.0.3.7}{}}
\newlabel{s2r}{{8}{7}{Box type constraints}{equation.0.3.8}{}}
\citation{tibshirani96}
\@writefile{lof}{\contentsline {figure}{\numberline {4}{\ignorespaces Transforming $q$-norm constrained domain to unit ball. Left: from unit cube ${\mathcal  C}^D$ to unit ball ${\mathcal  B}_0^D(1)$; Right from general $q$-norm domain $\mathcal  Q^D$ to unit ball ${\mathcal  B}_0^D(1)$.}}{8}{figure.0.4}}
\newlabel{fig:changeofdomain}{{4}{8}{Transforming $q$-norm constrained domain to unit ball. Left: from unit cube ${\mathcal C}^D$ to unit ball ${\mathcal B}_0^D(1)$; Right from general $q$-norm domain $\mathcal Q^D$ to unit ball ${\mathcal B}_0^D(1)$}{figure.0.4}{}}
\newlabel{domainR2S}{{9}{8}{Box type constraints}{equation.0.3.9}{}}
\@writefile{toc}{\contentsline {subsection}{\numberline {3.3}General $q$-norm constraints}{8}{subsection.0.3.3}}
\newlabel{q-norm}{{3.3}{8}{General $q$-norm constraints}{subsection.0.3.3}{}}
\newlabel{qnorm}{{10}{8}{General $q$-norm constraints}{equation.0.3.10}{}}
\citation{pakman13}
\newlabel{domainQ2S}{{11}{9}{General $q$-norm constraints}{equation.0.3.11}{}}
\@writefile{toc}{\contentsline {subsubsection}{\numberline {3.3.1}Norm constraints with $q\in (0,+\infty )$}{9}{subsubsection.0.3.3.1}}
\newlabel{q-reg}{{3.3.1}{9}{Norm constraints with $q\in (0,+\infty )$}{subsubsection.0.3.3.1}{}}
\newlabel{q2b}{{12}{9}{Norm constraints with $q\in (0,+\infty )$}{equation.0.3.12}{}}
\@writefile{toc}{\contentsline {subsubsection}{\numberline {3.3.2}Norm constraints with $q = +\infty $}{9}{subsubsection.0.3.3.2}}
\newlabel{q-inf}{{3.3.2}{9}{Norm constraints with $q = +\infty $}{subsubsection.0.3.3.2}{}}
\newlabel{c2b}{{13}{9}{Norm constraints with $q = +\infty $}{equation.0.3.13}{}}
\citation{pakman13}
\citation{pakman13}
\citation{pakman13}
\@writefile{lof}{\contentsline {figure}{\numberline {5}{\ignorespaces Linear constraints}}{10}{figure.0.5}}
\newlabel{fig:density_lin}{{5}{10}{Linear constraints}{figure.0.5}{}}
\@writefile{toc}{\contentsline {subsection}{\numberline {3.4}Functional constraints}{10}{subsection.0.3.4}}
\newlabel{funcon}{{3.4}{10}{Functional constraints}{subsection.0.3.4}{}}
\@writefile{toc}{\contentsline {subsubsection}{\numberline {3.4.1}Linear constraints}{10}{subsubsection.0.3.4.1}}
\newlabel{domainLinX}{{14}{10}{Linear constraints}{equation.0.3.14}{}}
\citation{pakman13}
\@writefile{toc}{\contentsline {subsubsection}{\numberline {3.4.2}Quadratic constraints}{11}{subsubsection.0.3.4.2}}
\newlabel{ring}{{16}{11}{Quadratic constraints}{equation.0.3.16}{}}
\newlabel{r2b}{{17}{11}{Quadratic constraints}{equation.0.3.17}{}}
\newlabel{b2r}{{18}{11}{Quadratic constraints}{equation.0.3.18}{}}
\newlabel{domainQuadX}{{19}{11}{Quadratic constraints}{equation.0.3.19}{}}
\citation{duane87,neal11}
\citation{lan14a}
\citation{blei03}
\@writefile{toc}{\contentsline {subsubsection}{\numberline {3.4.3}More general constraints}{12}{subsubsection.0.3.4.3}}
\@writefile{toc}{\contentsline {section}{\numberline {4}Monte Carlo with Spherical Augmentation}{12}{section.0.4}}
\newlabel{SAMC}{{4}{12}{Monte Carlo with Spherical Augmentation}{section.0.4}{}}
\@writefile{toc}{\contentsline {subsection}{\numberline {4.1}Common settings}{12}{subsection.0.4.1}}
\newlabel{domainX}{{20}{12}{Common settings}{equation.0.4.20}{}}
\newlabel{potentialX}{{21}{12}{Common settings}{equation.0.4.21}{}}
\citation{beskos11,shahbaba14,byrne13}
\citation{byrne13}
\newlabel{HamiltonianX}{{22}{13}{Common settings}{equation.0.4.22}{}}
\@writefile{toc}{\contentsline {subsection}{\numberline {4.2}Spherical Hamiltonian Monte Carlo}{13}{subsection.0.4.2}}
\newlabel{SphHMC}{{4.2}{13}{Spherical Hamiltonian Monte Carlo}{subsection.0.4.2}{}}
\@writefile{toc}{\contentsline {subsubsection}{\numberline {4.2.1}Spherical HMC in Cartesian coordinates}{13}{subsubsection.0.4.2.1}}
\newlabel{SphHMCc}{{4.2.1}{13}{Spherical HMC in Cartesian coordinates}{subsubsection.0.4.2.1}{}}
\newlabel{HamiltonianI}{{26}{13}{Spherical HMC in Cartesian coordinates}{equation.0.4.26}{}}
\citation{girolami11,lan14a}
\citation{lan14a}
\newlabel{HamiltonianSc}{{27}{14}{Spherical HMC in Cartesian coordinates}{equation.0.4.27}{}}
\newlabel{hamiltonianSc}{{28}{14}{Spherical HMC in Cartesian coordinates}{equation.0.4.28}{}}
\newlabel{adjwt}{{29}{14}{Spherical HMC in Cartesian coordinates}{equation.0.4.29}{}}
\newlabel{augHamiltonianIc}{{30}{14}{Spherical HMC in Cartesian coordinates}{equation.0.4.30}{}}
\citation{lan14a}
\citation{byrne13}
\newlabel{sphLD}{{31}{15}{Spherical HMC in Cartesian coordinates}{equation.0.4.31}{}}
\newlabel{sphLD:U}{{33a}{15}{Spherical HMC in Cartesian coordinates}{equation.0.4.33a}{}}
\newlabel{sphLD:K}{{33b}{15}{Spherical HMC in Cartesian coordinates}{equation.0.4.33b}{}}
\newlabel{evolv}{{34}{15}{Spherical HMC in Cartesian coordinates}{equation.0.4.34}{}}
\newlabel{gcir}{{35}{15}{Spherical HMC in Cartesian coordinates}{equation.0.4.35}{}}
\@writefile{loa}{\contentsline {algorithm}{\numberline {1}{\ignorespaces Spherical HMC in Cartesian coordinates (c-SphHMC)}}{16}{algorithm.1}}
\newlabel{Alg:cSphHMC}{{1}{16}{Spherical HMC in Cartesian coordinates}{algorithm.1}{}}
\@writefile{toc}{\contentsline {subsubsection}{\numberline {4.2.2}Spherical HMC in the spherical coordinates}{16}{subsubsection.0.4.2.2}}
\newlabel{SphHMCs}{{4.2.2}{16}{Spherical HMC in the spherical coordinates}{subsubsection.0.4.2.2}{}}
\newlabel{HamiltonianSs}{{36}{16}{Spherical HMC in the spherical coordinates}{equation.0.4.36}{}}
\newlabel{hamiltonianSs}{{37}{17}{Spherical HMC in the spherical coordinates}{equation.0.4.37}{}}
\newlabel{dr2s}{{38}{17}{Spherical HMC in the spherical coordinates}{equation.0.4.38}{}}
\newlabel{ds2r}{{39}{17}{Spherical HMC in the spherical coordinates}{equation.0.4.39}{}}
\newlabel{augHamiltonianIs}{{40}{17}{Spherical HMC in the spherical coordinates}{equation.0.4.40}{}}
\newlabel{sphLD:1}{{41a}{17}{Spherical HMC in the spherical coordinates}{equation.0.4.41a}{}}
\newlabel{sphLD:2}{{41b}{17}{Spherical HMC in the spherical coordinates}{equation.0.4.41b}{}}
\citation{blei03}
\citation{lan14a}
\citation{patterson13}
\@writefile{loa}{\contentsline {algorithm}{\numberline {2}{\ignorespaces Spherical HMC in the spherical coordinates (s-SphHMC)}}{18}{algorithm.2}}
\newlabel{Alg:sSphHMC}{{2}{18}{Spherical HMC in the spherical coordinates}{algorithm.2}{}}
\@writefile{toc}{\contentsline {subsection}{\numberline {4.3}Spherical LMC on probability simplex}{18}{subsection.0.4.3}}
\newlabel{SphLMC}{{4.3}{18}{Spherical LMC on probability simplex}{subsection.0.4.3}{}}
\newlabel{probsplx}{{42}{18}{Spherical LMC on probability simplex}{equation.0.4.42}{}}
\newlabel{x2b}{{43}{18}{Spherical LMC on probability simplex}{equation.0.4.43}{}}
\newlabel{linkSF}{{4.1}{19}{Spherical LMC on probability simplex}{prop.0.4.1}{}}
\newlabel{metX}{{45}{19}{Spherical LMC on probability simplex}{equation.0.4.45}{}}
\citation{patterson13}
\citation{patterson13}
\@writefile{lof}{\contentsline {figure}{\numberline {6}{\ignorespaces Dirichlet-Multinomial distribution}}{20}{figure.0.6}}
\newlabel{fig:D-M}{{6}{20}{Dirichlet-Multinomial distribution}{figure.0.6}{}}
\newlabel{ng4X}{{47}{20}{Spherical LMC on probability simplex}{equation.0.4.47}{}}
\citation{pakman13}
\citation{patterson13}
\citation{geyer92}
\@writefile{loa}{\contentsline {algorithm}{\numberline {3}{\ignorespaces Spherical LMC for Simplex (SphLMC)}}{21}{algorithm.3}}
\newlabel{Alg:SphLMC}{{3}{21}{Spherical LMC on probability simplex}{algorithm.3}{}}
\@writefile{toc}{\contentsline {section}{\numberline {5}Experimental results}{21}{section.0.5}}
\newlabel{results}{{5}{21}{Experimental results}{section.0.5}{}}
\@writefile{lof}{\contentsline {figure}{\numberline {7}{\ignorespaces Truncated Multivariate Gaussian}}{22}{figure.0.7}}
\newlabel{fig:TMG-sph}{{7}{22}{Truncated Multivariate Gaussian}{figure.0.7}{}}
\@writefile{toc}{\contentsline {subsection}{\numberline {5.1}Truncated Multivariate Gaussian}{22}{subsection.0.5.1}}
\@writefile{lot}{\contentsline {table}{\numberline {1}{\ignorespaces Comparing the point estimates for the mean and covariance of a bivariate truncated Gaussian distribution using RWM, Wall HMC, exact HMC, c-SphHMC and s-SphHMC.}}{23}{table.0.1}}
\newlabel{TMG-moments}{{1}{23}{Comparing the point estimates for the mean and covariance of a bivariate truncated Gaussian distribution using RWM, Wall HMC, exact HMC, c-SphHMC and s-SphHMC}{table.0.1}{}}
\@writefile{lot}{\contentsline {table}{\numberline {2}{\ignorespaces Comparing the efficiency of RWM, Wall HMC, exact HMC, c-SphHMC and s-SphHMC in terms of sampling from truncated Gaussian distributions.}}{23}{table.0.2}}
\newlabel{TMG-eff}{{2}{23}{Comparing the efficiency of RWM, Wall HMC, exact HMC, c-SphHMC and s-SphHMC in terms of sampling from truncated Gaussian distributions}{table.0.2}{}}
\citation{tibshirani96}
\citation{park08}
\citation{hans09}
\citation{west87}
\citation{neal11}
\@writefile{lof}{\contentsline {figure}{\numberline {8}{\ignorespaces Bayesian Lasso using different sampling algorithms}}{24}{figure.0.8}}
\newlabel{fig:lasso}{{8}{24}{Bayesian Lasso using different sampling algorithms}{figure.0.8}{}}
\@writefile{toc}{\contentsline {subsection}{\numberline {5.2}Bayesian Lasso}{24}{subsection.0.5.2}}
\citation{park08}
\citation{park08}
\citation{frank93}
\@writefile{lof}{\contentsline {figure}{\numberline {9}{\ignorespaces Sampling Efficiency in Bayesian Lasso}}{25}{figure.0.9}}
\newlabel{fig:bridgeff}{{9}{25}{Sampling Efficiency in Bayesian Lasso}{figure.0.9}{}}
\@writefile{toc}{\contentsline {subsection}{\numberline {5.3}Bridge regression}{25}{subsection.0.5.3}}
\citation{park08}
\citation{hans09}
\citation{park08}
\citation{pakman13}
\@writefile{lof}{\contentsline {figure}{\numberline {10}{\ignorespaces Bayesian Bridge Regression by Spherical HMC}}{26}{figure.0.10}}
\newlabel{fig:bridge}{{10}{26}{Bayesian Bridge Regression by Spherical HMC}{figure.0.10}{}}
\@writefile{toc}{\contentsline {subsection}{\numberline {5.4}Reconstruction of quantized stationary Gaussian process}{26}{subsection.0.5.4}}
\newlabel{trunct}{{51}{26}{Reconstruction of quantized stationary Gaussian process}{equation.0.5.51}{}}
\citation{blei03}
\citation{patterson13}
\citation{teh06}
\@writefile{lof}{\contentsline {figure}{\numberline {11}{\ignorespaces Quantized stationary Gaussian process (upper) and the estimates of the process (lower). }}{27}{figure.0.11}}
\newlabel{fig:qsGP_est}{{11}{27}{Quantized stationary Gaussian process (upper) and the estimates of the process (lower)}{figure.0.11}{}}
\@writefile{toc}{\contentsline {subsection}{\numberline {5.5}Latent Dirichlet Allocation on Wikipedia corpus}{27}{subsection.0.5.5}}
\newlabel{sec:LDA}{{5.5}{27}{Latent Dirichlet Allocation on Wikipedia corpus}{subsection.0.5.5}{}}
\citation{patterson13}
\@writefile{lot}{\contentsline {table}{\numberline {3}{\ignorespaces Comparing efficiency of RWM, Wall HMC, exact HMC, c-SphHMC and s-SphHMC in reconstructing a quantized stationary Gaussian process.}}{28}{table.0.3}}
\newlabel{qsGP-eff}{{3}{28}{Comparing efficiency of RWM, Wall HMC, exact HMC, c-SphHMC and s-SphHMC in reconstructing a quantized stationary Gaussian process}{table.0.3}{}}
\@writefile{lof}{\contentsline {figure}{\numberline {12}{\ignorespaces Test-set perplexities and computation time}}{28}{figure.0.12}}
\newlabel{fig:LDA-wiki}{{12}{28}{Test-set perplexities and computation time}{figure.0.12}{}}
\citation{patterson13}
\citation{welling11}
\citation{neal11}
\citation{patterson13}
\citation{patterson13,wallach09}
\citation{wallach09}
\newlabel{sg4LMC}{{55}{29}{Latent Dirichlet Allocation on Wikipedia corpus}{equation.0.5.55}{}}
\citation{hoffman10}
\@writefile{lot}{\contentsline {table}{\numberline {4}{\ignorespaces Parameter settings for best performance in Wikipedia experiment.}}{30}{table.0.4}}
\newlabel{LDA-parset}{{4}{30}{Parameter settings for best performance in Wikipedia experiment}{table.0.4}{}}
\@writefile{toc}{\contentsline {section}{\numberline {6}Discussion}{30}{section.0.6}}
\newlabel{discussion}{{6}{30}{Discussion}{section.0.6}{}}
\citation{byrne13}
\citation{murray10}
\citation{beskos11}
\@writefile{toc}{\contentsline {section}{Appendix}{32}{section*.2}}
\@writefile{toc}{\contentsline {section}{\numberline {7}Spherical Geometry}{32}{section.0.7}}
\newlabel{geomS}{{7}{32}{Spherical Geometry}{section.0.7}{}}
\newlabel{enginv}{{7.1}{32}{Energy invariance}{prop.0.7.1}{}}
\@writefile{toc}{\contentsline {subsection}{\numberline {7.1}Canonical metric in Cartesian coordinates}{32}{subsection.0.7.1}}
\newlabel{Metc}{{7.1}{32}{Canonical metric in Cartesian coordinates}{subsection.0.7.1}{}}
\citation{spivak79-1}
\citation{golub96}
\newlabel{GSc}{{61}{33}{Canonical metric in Cartesian coordinates}{equation.0.7.61}{}}
\citation{spivak79-1,docarmo92}
\newlabel{voladjB2S}{{1}{34}{Canonical metric in Cartesian coordinates}{cor.1}{}}
\@writefile{toc}{\contentsline {subsection}{\numberline {7.2}Geodesic on a sphere in Cartesian coordinates}{34}{subsection.0.7.2}}
\newlabel{GEODS}{{7.2}{34}{Geodesic on a sphere in Cartesian coordinates}{subsection.0.7.2}{}}
\newlabel{geodS:1}{{65}{34}{Geodesic on a sphere in Cartesian coordinates}{equation.0.7.65}{}}
\newlabel{geodS:2}{{66}{34}{Geodesic on a sphere in Cartesian coordinates}{equation.0.7.66}{}}
\newlabel{geodSx:1}{{67}{35}{Geodesic on a sphere in Cartesian coordinates}{equation.0.7.67}{}}
\newlabel{geodSx:2}{{68}{35}{Geodesic on a sphere in Cartesian coordinates}{equation.0.7.68}{}}
\@writefile{toc}{\contentsline {subsection}{\numberline {7.3}Round metric in the spherical coordinates}{35}{subsection.0.7.3}}
\newlabel{Mets}{{7.3}{35}{Round metric in the spherical coordinates}{subsection.0.7.3}{}}
\newlabel{GSs}{{69}{35}{Round metric in the spherical coordinates}{equation.0.7.69}{}}
\newlabel{voladjR2S}{{7.3}{36}{Round metric in the spherical coordinates}{prop.0.7.3}{}}
\@writefile{toc}{\contentsline {section}{\numberline {8}Jacobian of the transformation between $q$-norm domains}{36}{section.0.8}}
\newlabel{Jacobian}{{8}{36}{Jacobian of the transformation between $q$-norm domains}{section.0.8}{}}
\citation{leimkuhler04,shahbaba14,byrne13}
\citation{byrne13}
\@writefile{toc}{\contentsline {section}{\numberline {9}Splitting Hamiltonian (Lagrangian) dynamics on $\mathcal  S^D$}{37}{section.0.9}}
\newlabel{splitHS}{{9}{37}{Splitting Hamiltonian (Lagrangian) dynamics on $\mathcal S^D$}{section.0.9}{}}
\citation{leimkuhler04}
\@writefile{toc}{\contentsline {section}{\numberline {10}Error analysis of Spherical HMC}{38}{section.0.10}}
\newlabel{Err}{{10}{38}{Error analysis of Spherical HMC}{section.0.10}{}}
\newlabel{vnormv}{{77}{38}{Error analysis of Spherical HMC}{equation.0.10.77}{}}
\citation{neal11}
\@writefile{toc}{\contentsline {section}{\numberline {11}Bounce in diamond: Wall HMC for 1-norm constraint}{40}{section.0.11}}
\newlabel{walldiamond}{{11}{40}{Bounce in diamond: Wall HMC for 1-norm constraint}{section.0.11}{}}
\@writefile{lof}{\contentsline {figure}{\numberline {13}{\ignorespaces Wall HMC bounces in the 1-norm constraint domain. Left: given the current state $\boldsymbol  {\theta }_0$, Wall HMC proposes $\boldsymbol  {\theta }$, but bounces of the boundary and reaches $\boldsymbol  {\theta }'$ instead. Right: determining the hitting time by monitoring the first intersection point with coordinate planes that violates the constraint.}}{41}{figure.0.13}}
\newlabel{fig:bounceindiamond}{{13}{41}{Wall HMC bounces in the 1-norm constraint domain. Left: given the current state $\vect \theta _0$, Wall HMC proposes $\vect \theta $, but bounces of the boundary and reaches $\vect \theta '$ instead. Right: determining the hitting time by monitoring the first intersection point with coordinate planes that violates the constraint}{figure.0.13}{}}
\@writefile{loa}{\contentsline {algorithm}{\numberline {4}{\ignorespaces Wall HMC for 1-norm constraint (Wall HMC)}}{42}{algorithm.4}}
\newlabel{Alg:diamond}{{4}{42}{Bounce in diamond: Wall HMC for 1-norm constraint}{algorithm.4}{}}
\bibdata{references}
\bibcite{lan14b}{{1}{}{{}}{{}}}
\bibcite{ahmadian11}{{2}{}{{}}{{}}}
\bibcite{ahn13}{{3}{}{{}}{{}}}
\bibcite{ahn14}{{4}{}{{}}{{}}}
\bibcite{amari00}{{5}{}{{}}{{}}}
\bibcite{andrieu06}{{6}{}{{}}{{}}}
\bibcite{beal03}{{7}{}{{}}{{}}}
\bibcite{beskos11}{{8}{}{{}}{{}}}
\bibcite{blei03}{{9}{}{{}}{{}}}
\bibcite{brockwell06}{{10}{}{{}}{{}}}
\bibcite{brubaker12}{{11}{}{{}}{{}}}
\bibcite{byrne13}{{12}{}{{}}{{}}}
\bibcite{calderhead12}{{13}{}{{}}{{}}}
\bibcite{cappe08}{{14}{}{{}}{{}}}
\bibcite{docarmo92}{{15}{}{{}}{{}}}
\bibcite{craiu09}{{16}{}{{}}{{}}}
\bibcite{duane87}{{17}{}{{}}{{}}}
\@writefile{toc}{\contentsline {section}{References}{43}{section*.3}}
\@mtwritefile{\contentsline {mtchap}{References}{43}{section*.3}}
\bibcite{frank93}{{18}{}{{}}{{}}}
\bibcite{freitas01}{{19}{}{{}}{{}}}
\bibcite{gelfand10}{{20}{}{{}}{{}}}
\bibcite{geyer92}{{21}{}{{}}{{}}}
\bibcite{gilks98}{{22}{}{{}}{{}}}
\bibcite{girolami11}{{23}{}{{}}{{}}}
\bibcite{golub96}{{24}{}{{}}{{}}}
\bibcite{hans09}{{25}{}{{}}{{}}}
\bibcite{hoffman10}{{26}{}{{}}{{}}}
\bibcite{hoffman11}{{27}{}{{}}{{}}}
\bibcite{kurihara06}{{28}{}{{}}{{}}}
\bibcite{lan14a}{{29}{}{{}}{{}}}
\bibcite{leimkuhler04}{{30}{}{{}}{{}}}
\bibcite{moller06}{{31}{}{{}}{{}}}
\bibcite{murray10}{{32}{}{{}}{{}}}
\bibcite{mykland95}{{33}{}{{}}{{}}}
\bibcite{pneal08}{{34}{}{{}}{{}}}
\bibcite{pneal12}{{35}{}{{}}{{}}}
\bibcite{neal93}{{36}{}{{}}{{}}}
\bibcite{neal96a}{{37}{}{{}}{{}}}
\bibcite{neal03}{{38}{}{{}}{{}}}
\bibcite{neal05}{{39}{}{{}}{{}}}
\bibcite{neal11}{{40}{}{{}}{{}}}
\bibcite{pakman13}{{41}{}{{}}{{}}}
\bibcite{park08}{{42}{}{{}}{{}}}
\bibcite{patterson13}{{43}{}{{}}{{}}}
\bibcite{propp96}{{44}{}{{}}{{}}}
\bibcite{douc07}{{45}{}{{}}{{}}}
\bibcite{douc11}{{46}{}{{}}{{}}}
\bibcite{roberts97}{{47}{}{{}}{{}}}
\bibcite{shahbaba14}{{48}{}{{}}{{}}}
\bibcite{sherlock09}{{49}{}{{}}{{}}}
\bibcite{spivak65}{{50}{}{{}}{{}}}
\bibcite{spivak79-1}{{51}{}{{}}{{}}}
\bibcite{teh06}{{52}{}{{}}{{}}}
\bibcite{tibshirani96}{{53}{}{{}}{{}}}
\bibcite{wallach09}{{54}{}{{}}{{}}}
\bibcite{warnes01}{{55}{}{{}}{{}}}
\bibcite{welling09}{{56}{}{{}}{{}}}
\bibcite{welling11}{{57}{}{{}}{{}}}
\bibcite{west87}{{58}{}{{}}{{}}}
\bibcite{zhang11}{{59}{}{{}}{{}}}
\bibstyle{spmpsci}
\immediate\closeout\minitoc
\providecommand\NAT@force@numbers{}\NAT@force@numbers
